
./octez-client --protocol PtParisBxoLz5gzMmn3d9WBQNoPSZakgnkMC2VNuQ3KXfUtUQeZ --mode mockup --no-base-dir-warnings run script michelson_test_scripts/opcodes/comparisons.tz on storage '{}' and input '{ -9999999; -1 ; 0 ; 1 ; 9999999 }' --level 1 --trace-stack
storage
  { { False ; False ; False ; True ; True } ;
    { False ; False ; True ; True ; True } ;
    { True ; True ; False ; False ; False } ;
    { True ; True ; True ; False ; False } ;
    { True ; True ; False ; True ; True } ;
    { False ; False ; True ; False ; False } }
emitted operations
  
big_map diff
  
trace
  - location: 10 (just consumed gas: 29.053)
    [ (Pair { -9999999 ; -1 ; 0 ; 1 ; 9999999 } {}) ]
  - location: 10 (just consumed gas: 0.010)
    [ { -9999999 ; -1 ; 0 ; 1 ; 9999999 } ]
  - location: 11 (just consumed gas: 0.010)
    [ {}
      { -9999999 ; -1 ; 0 ; 1 ; 9999999 } ]
  - location: 14 (just consumed gas: 0.010)
    [ { -9999999 ; -1 ; 0 ; 1 ; 9999999 } ]
  - location: 16 (just consumed gas: 0.010)
    [ { -9999999 ; -1 ; 0 ; 1 ; 9999999 }
      { -9999999 ; -1 ; 0 ; 1 ; 9999999 } ]
  - location: 17 (just consumed gas: 0.050)
    [ -9999999
      { -9999999 ; -1 ; 0 ; 1 ; 9999999 } ]
  - location: 19 (just consumed gas: 0.010)
    [ False
      { -9999999 ; -1 ; 0 ; 1 ; 9999999 } ]
  - location: 17 (just consumed gas: 0.055)
    [ -1
      { -9999999 ; -1 ; 0 ; 1 ; 9999999 } ]
  - location: 19 (just consumed gas: 0.010)
    [ False
      { -9999999 ; -1 ; 0 ; 1 ; 9999999 } ]
  - location: 17 (just consumed gas: 0.055)
    [ 0
      { -9999999 ; -1 ; 0 ; 1 ; 9999999 } ]
  - location: 19 (just consumed gas: 0.010)
    [ True
      { -9999999 ; -1 ; 0 ; 1 ; 9999999 } ]
  - location: 17 (just consumed gas: 0.055)
    [ 1
      { -9999999 ; -1 ; 0 ; 1 ; 9999999 } ]
  - location: 19 (just consumed gas: 0.010)
    [ False
      { -9999999 ; -1 ; 0 ; 1 ; 9999999 } ]
  - location: 17 (just consumed gas: 0.055)
    [ 9999999
      { -9999999 ; -1 ; 0 ; 1 ; 9999999 } ]
  - location: 19 (just consumed gas: 0.010)
    [ False
      { -9999999 ; -1 ; 0 ; 1 ; 9999999 } ]
  - location: 17 (just consumed gas: 0.073)
    [ { False ; False ; True ; False ; False }
      { -9999999 ; -1 ; 0 ; 1 ; 9999999 } ]
  - location: 14 (just consumed gas: 0.035)
    [ {}
      { False ; False ; True ; False ; False }
      { -9999999 ; -1 ; 0 ; 1 ; 9999999 } ]
  - location: 20 (just consumed gas: 0.010)
    [ { False ; False ; True ; False ; False }
      {}
      { -9999999 ; -1 ; 0 ; 1 ; 9999999 } ]
  - location: 21 (just consumed gas: 0.010)
    [ { { False ; False ; True ; False ; False } }
      { -9999999 ; -1 ; 0 ; 1 ; 9999999 } ]
  - location: 22 (just consumed gas: 0.010)
    [ { -9999999 ; -1 ; 0 ; 1 ; 9999999 } ]
  - location: 24 (just consumed gas: 0.010)
    [ { -9999999 ; -1 ; 0 ; 1 ; 9999999 }
      { -9999999 ; -1 ; 0 ; 1 ; 9999999 } ]
  - location: 25 (just consumed gas: 0.050)
    [ -9999999
      { -9999999 ; -1 ; 0 ; 1 ; 9999999 } ]
  - location: 27 (just consumed gas: 0.010)
    [ True
      { -9999999 ; -1 ; 0 ; 1 ; 9999999 } ]
  - location: 25 (just consumed gas: 0.055)
    [ -1
      { -9999999 ; -1 ; 0 ; 1 ; 9999999 } ]
  - location: 27 (just consumed gas: 0.010)
    [ True
      { -9999999 ; -1 ; 0 ; 1 ; 9999999 } ]
  - location: 25 (just consumed gas: 0.055)
    [ 0
      { -9999999 ; -1 ; 0 ; 1 ; 9999999 } ]
  - location: 27 (just consumed gas: 0.010)
    [ False
      { -9999999 ; -1 ; 0 ; 1 ; 9999999 } ]
  - location: 25 (just consumed gas: 0.055)
    [ 1
      { -9999999 ; -1 ; 0 ; 1 ; 9999999 } ]
  - location: 27 (just consumed gas: 0.010)
    [ True
      { -9999999 ; -1 ; 0 ; 1 ; 9999999 } ]
  - location: 25 (just consumed gas: 0.055)
    [ 9999999
      { -9999999 ; -1 ; 0 ; 1 ; 9999999 } ]
  - location: 27 (just consumed gas: 0.010)
    [ True
      { -9999999 ; -1 ; 0 ; 1 ; 9999999 } ]
  - location: 25 (just consumed gas: 0.073)
    [ { True ; True ; False ; True ; True }
      { -9999999 ; -1 ; 0 ; 1 ; 9999999 } ]
  - location: 22 (just consumed gas: 0.035)
    [ { { False ; False ; True ; False ; False } }
      { True ; True ; False ; True ; True }
      { -9999999 ; -1 ; 0 ; 1 ; 9999999 } ]
  - location: 28 (just consumed gas: 0.010)
    [ { True ; True ; False ; True ; True }
      { { False ; False ; True ; False ; False } }
      { -9999999 ; -1 ; 0 ; 1 ; 9999999 } ]
  - location: 29 (just consumed gas: 0.010)
    [ { { True ; True ; False ; True ; True } ;
        { False ; False ; True ; False ; False } }
      { -9999999 ; -1 ; 0 ; 1 ; 9999999 } ]
  - location: 30 (just consumed gas: 0.010)
    [ { -9999999 ; -1 ; 0 ; 1 ; 9999999 } ]
  - location: 32 (just consumed gas: 0.010)
    [ { -9999999 ; -1 ; 0 ; 1 ; 9999999 }
      { -9999999 ; -1 ; 0 ; 1 ; 9999999 } ]
  - location: 33 (just consumed gas: 0.050)
    [ -9999999
      { -9999999 ; -1 ; 0 ; 1 ; 9999999 } ]
  - location: 35 (just consumed gas: 0.010)
    [ True
      { -9999999 ; -1 ; 0 ; 1 ; 9999999 } ]
  - location: 33 (just consumed gas: 0.055)
    [ -1
      { -9999999 ; -1 ; 0 ; 1 ; 9999999 } ]
  - location: 35 (just consumed gas: 0.010)
    [ True
      { -9999999 ; -1 ; 0 ; 1 ; 9999999 } ]
  - location: 33 (just consumed gas: 0.055)
    [ 0
      { -9999999 ; -1 ; 0 ; 1 ; 9999999 } ]
  - location: 35 (just consumed gas: 0.010)
    [ True
      { -9999999 ; -1 ; 0 ; 1 ; 9999999 } ]
  - location: 33 (just consumed gas: 0.055)
    [ 1
      { -9999999 ; -1 ; 0 ; 1 ; 9999999 } ]
  - location: 35 (just consumed gas: 0.010)
    [ False
      { -9999999 ; -1 ; 0 ; 1 ; 9999999 } ]
  - location: 33 (just consumed gas: 0.055)
    [ 9999999
      { -9999999 ; -1 ; 0 ; 1 ; 9999999 } ]
  - location: 35 (just consumed gas: 0.010)
    [ False
      { -9999999 ; -1 ; 0 ; 1 ; 9999999 } ]
  - location: 33 (just consumed gas: 0.073)
    [ { True ; True ; True ; False ; False }
      { -9999999 ; -1 ; 0 ; 1 ; 9999999 } ]
  - location: 30 (just consumed gas: 0.035)
    [ { { True ; True ; False ; True ; True } ;
        { False ; False ; True ; False ; False } }
      { True ; True ; True ; False ; False }
      { -9999999 ; -1 ; 0 ; 1 ; 9999999 } ]
  - location: 36 (just consumed gas: 0.010)
    [ { True ; True ; True ; False ; False }
      { { True ; True ; False ; True ; True } ;
        { False ; False ; True ; False ; False } }
      { -9999999 ; -1 ; 0 ; 1 ; 9999999 } ]
  - location: 37 (just consumed gas: 0.010)
    [ { { True ; True ; True ; False ; False } ;
        { True ; True ; False ; True ; True } ;
        { False ; False ; True ; False ; False } }
      { -9999999 ; -1 ; 0 ; 1 ; 9999999 } ]
  - location: 38 (just consumed gas: 0.010)
    [ { -9999999 ; -1 ; 0 ; 1 ; 9999999 } ]
  - location: 40 (just consumed gas: 0.010)
    [ { -9999999 ; -1 ; 0 ; 1 ; 9999999 }
      { -9999999 ; -1 ; 0 ; 1 ; 9999999 } ]
  - location: 41 (just consumed gas: 0.050)
    [ -9999999
      { -9999999 ; -1 ; 0 ; 1 ; 9999999 } ]
  - location: 43 (just consumed gas: 0.010)
    [ True
      { -9999999 ; -1 ; 0 ; 1 ; 9999999 } ]
  - location: 41 (just consumed gas: 0.055)
    [ -1
      { -9999999 ; -1 ; 0 ; 1 ; 9999999 } ]
  - location: 43 (just consumed gas: 0.010)
    [ True
      { -9999999 ; -1 ; 0 ; 1 ; 9999999 } ]
  - location: 41 (just consumed gas: 0.055)
    [ 0
      { -9999999 ; -1 ; 0 ; 1 ; 9999999 } ]
  - location: 43 (just consumed gas: 0.010)
    [ False
      { -9999999 ; -1 ; 0 ; 1 ; 9999999 } ]
  - location: 41 (just consumed gas: 0.055)
    [ 1
      { -9999999 ; -1 ; 0 ; 1 ; 9999999 } ]
  - location: 43 (just consumed gas: 0.010)
    [ False
      { -9999999 ; -1 ; 0 ; 1 ; 9999999 } ]
  - location: 41 (just consumed gas: 0.055)
    [ 9999999
      { -9999999 ; -1 ; 0 ; 1 ; 9999999 } ]
  - location: 43 (just consumed gas: 0.010)
    [ False
      { -9999999 ; -1 ; 0 ; 1 ; 9999999 } ]
  - location: 41 (just consumed gas: 0.073)
    [ { True ; True ; False ; False ; False }
      { -9999999 ; -1 ; 0 ; 1 ; 9999999 } ]
  - location: 38 (just consumed gas: 0.035)
    [ { { True ; True ; True ; False ; False } ;
        { True ; True ; False ; True ; True } ;
        { False ; False ; True ; False ; False } }
      { True ; True ; False ; False ; False }
      { -9999999 ; -1 ; 0 ; 1 ; 9999999 } ]
  - location: 44 (just consumed gas: 0.010)
    [ { True ; True ; False ; False ; False }
      { { True ; True ; True ; False ; False } ;
        { True ; True ; False ; True ; True } ;
        { False ; False ; True ; False ; False } }
      { -9999999 ; -1 ; 0 ; 1 ; 9999999 } ]
  - location: 45 (just consumed gas: 0.010)
    [ { { True ; True ; False ; False ; False } ;
        { True ; True ; True ; False ; False } ;
        { True ; True ; False ; True ; True } ;
        { False ; False ; True ; False ; False } }
      { -9999999 ; -1 ; 0 ; 1 ; 9999999 } ]
  - location: 46 (just consumed gas: 0.010)
    [ { -9999999 ; -1 ; 0 ; 1 ; 9999999 } ]
  - location: 48 (just consumed gas: 0.010)
    [ { -9999999 ; -1 ; 0 ; 1 ; 9999999 }
      { -9999999 ; -1 ; 0 ; 1 ; 9999999 } ]
  - location: 49 (just consumed gas: 0.050)
    [ -9999999
      { -9999999 ; -1 ; 0 ; 1 ; 9999999 } ]
  - location: 51 (just consumed gas: 0.010)
    [ False
      { -9999999 ; -1 ; 0 ; 1 ; 9999999 } ]
  - location: 49 (just consumed gas: 0.055)
    [ -1
      { -9999999 ; -1 ; 0 ; 1 ; 9999999 } ]
  - location: 51 (just consumed gas: 0.010)
    [ False
      { -9999999 ; -1 ; 0 ; 1 ; 9999999 } ]
  - location: 49 (just consumed gas: 0.055)
    [ 0
      { -9999999 ; -1 ; 0 ; 1 ; 9999999 } ]
  - location: 51 (just consumed gas: 0.010)
    [ True
      { -9999999 ; -1 ; 0 ; 1 ; 9999999 } ]
  - location: 49 (just consumed gas: 0.055)
    [ 1
      { -9999999 ; -1 ; 0 ; 1 ; 9999999 } ]
  - location: 51 (just consumed gas: 0.010)
    [ True
      { -9999999 ; -1 ; 0 ; 1 ; 9999999 } ]
  - location: 49 (just consumed gas: 0.055)
    [ 9999999
      { -9999999 ; -1 ; 0 ; 1 ; 9999999 } ]
  - location: 51 (just consumed gas: 0.010)
    [ True
      { -9999999 ; -1 ; 0 ; 1 ; 9999999 } ]
  - location: 49 (just consumed gas: 0.073)
    [ { False ; False ; True ; True ; True }
      { -9999999 ; -1 ; 0 ; 1 ; 9999999 } ]
  - location: 46 (just consumed gas: 0.035)
    [ { { True ; True ; False ; False ; False } ;
        { True ; True ; True ; False ; False } ;
        { True ; True ; False ; True ; True } ;
        { False ; False ; True ; False ; False } }
      { False ; False ; True ; True ; True }
      { -9999999 ; -1 ; 0 ; 1 ; 9999999 } ]
  - location: 52 (just consumed gas: 0.010)
    [ { False ; False ; True ; True ; True }
      { { True ; True ; False ; False ; False } ;
        { True ; True ; True ; False ; False } ;
        { True ; True ; False ; True ; True } ;
        { False ; False ; True ; False ; False } }
      { -9999999 ; -1 ; 0 ; 1 ; 9999999 } ]
  - location: 53 (just consumed gas: 0.010)
    [ { { False ; False ; True ; True ; True } ;
        { True ; True ; False ; False ; False } ;
        { True ; True ; True ; False ; False } ;
        { True ; True ; False ; True ; True } ;
        { False ; False ; True ; False ; False } }
      { -9999999 ; -1 ; 0 ; 1 ; 9999999 } ]
  - location: 54 (just consumed gas: 0.010)
    [ { -9999999 ; -1 ; 0 ; 1 ; 9999999 } ]
  - location: 56 (just consumed gas: 0.050)
    [ -9999999 ]
  - location: 58 (just consumed gas: 0.010)
    [ False ]
  - location: 56 (just consumed gas: 0.055)
    [ -1 ]
  - location: 58 (just consumed gas: 0.010)
    [ False ]
  - location: 56 (just consumed gas: 0.055)
    [ 0 ]
  - location: 58 (just consumed gas: 0.010)
    [ False ]
  - location: 56 (just consumed gas: 0.055)
    [ 1 ]
  - location: 58 (just consumed gas: 0.010)
    [ True ]
  - location: 56 (just consumed gas: 0.055)
    [ 9999999 ]
  - location: 58 (just consumed gas: 0.010)
    [ True ]
  - location: 56 (just consumed gas: 0.073)
    [ { False ; False ; False ; True ; True } ]
  - location: 54 (just consumed gas: 0.035)
    [ { { False ; False ; True ; True ; True } ;
        { True ; True ; False ; False ; False } ;
        { True ; True ; True ; False ; False } ;
        { True ; True ; False ; True ; True } ;
        { False ; False ; True ; False ; False } }
      { False ; False ; False ; True ; True } ]
  - location: 59 (just consumed gas: 0.010)
    [ { False ; False ; False ; True ; True }
      { { False ; False ; True ; True ; True } ;
        { True ; True ; False ; False ; False } ;
        { True ; True ; True ; False ; False } ;
        { True ; True ; False ; True ; True } ;
        { False ; False ; True ; False ; False } } ]
  - location: 60 (just consumed gas: 0.010)
    [ { { False ; False ; False ; True ; True } ;
        { False ; False ; True ; True ; True } ;
        { True ; True ; False ; False ; False } ;
        { True ; True ; True ; False ; False } ;
        { True ; True ; False ; True ; True } ;
        { False ; False ; True ; False ; False } } ]
  - location: 61 (just consumed gas: 0.010)
    [ {}
      { { False ; False ; False ; True ; True } ;
        { False ; False ; True ; True ; True } ;
        { True ; True ; False ; False ; False } ;
        { True ; True ; True ; False ; False } ;
        { True ; True ; False ; True ; True } ;
        { False ; False ; True ; False ; False } } ]
  - location: 63 (just consumed gas: 0.010)
    [ (Pair {}
            { { False ; False ; False ; True ; True } ;
              { False ; False ; True ; True ; True } ;
              { True ; True ; False ; False ; False } ;
              { True ; True ; True ; False ; False } ;
              { True ; True ; False ; True ; True } ;
              { False ; False ; True ; False ; False } }) ]

