
./octez-client --protocol PtParisBxoLz5gzMmn3d9WBQNoPSZakgnkMC2VNuQ3KXfUtUQeZ --mode mockup --no-base-dir-warnings run script michelson_test_scripts/opcodes/cons.tz on storage '{ -5 ; 10 }' and input 99 --level 1 --trace-stack
storage
  { 99 ; -5 ; 10 }
emitted operations
  
big_map diff
  
trace
  - location: 8 (just consumed gas: 4.610)
    [ (Pair 99 { -5 ; 10 }) ]
  - location: 8 (just consumed gas: 0.010)
    [ 99
      { -5 ; 10 } ]
  - location: 9 (just consumed gas: 0.010)
    [ { 99 ; -5 ; 10 } ]
  - location: 10 (just consumed gas: 0.010)
    [ {}
      { 99 ; -5 ; 10 } ]
  - location: 12 (just consumed gas: 0.010)
    [ (Pair {} { 99 ; -5 ; 10 }) ]

