
./octez-client --protocol PtParisBxoLz5gzMmn3d9WBQNoPSZakgnkMC2VNuQ3KXfUtUQeZ --mode mockup --no-base-dir-warnings run script michelson_test_scripts/opcodes/bytes_of_nat_016.tz on storage Unit and input Unit --level 1 --trace-stack
storage
  Unit
emitted operations
  
big_map diff
  
trace
  - location: 7 (just consumed gas: 52.991)
    [ (Pair Unit Unit) ]
  - location: 7 (just consumed gas: 0.010)
    [  ]
  - location: 8 (just consumed gas: 0.010)
    [ 0 ]
  - location: 11 (just consumed gas: 0.075)
    [ 0x ]
  - location: 12 (just consumed gas: 0.010)
    [ 0x
      0x ]
  - location: 17 (just consumed gas: 0.035)
    [ 0 ]
  - location: 18 (just consumed gas: 0.010)
    [ True ]
  - location: 19 (just consumed gas: 0.010)
    [  ]
  - location: 19 (just consumed gas: 0.025)
    [  ]
  - location: 25 (just consumed gas: 0.010)
    [ 1 ]
  - location: 28 (just consumed gas: 0.078)
    [ 0x01 ]
  - location: 29 (just consumed gas: 0.010)
    [ 0x01
      0x01 ]
  - location: 34 (just consumed gas: 0.035)
    [ 0 ]
  - location: 35 (just consumed gas: 0.010)
    [ True ]
  - location: 36 (just consumed gas: 0.010)
    [  ]
  - location: 36 (just consumed gas: 0.025)
    [  ]
  - location: 42 (just consumed gas: 0.010)
    [ 1193046 ]
  - location: 45 (just consumed gas: 0.084)
    [ 0x123456 ]
  - location: 46 (just consumed gas: 0.010)
    [ 0x123456
      0x123456 ]
  - location: 51 (just consumed gas: 0.035)
    [ 0 ]
  - location: 52 (just consumed gas: 0.010)
    [ True ]
  - location: 53 (just consumed gas: 0.010)
    [  ]
  - location: 53 (just consumed gas: 0.025)
    [  ]
  - location: 59 (just consumed gas: 0.010)
    [ 0x123456 ]
  - location: 62 (just consumed gas: 0.052)
    [ 1193046 ]
  - location: 63 (just consumed gas: 0.010)
    [ 1193046
      1193046 ]
  - location: 68 (just consumed gas: 0.035)
    [ 0 ]
  - location: 69 (just consumed gas: 0.010)
    [ True ]
  - location: 70 (just consumed gas: 0.010)
    [  ]
  - location: 70 (just consumed gas: 0.025)
    [  ]
  - location: 76 (just consumed gas: 0.010)
    [ 0x0000123456 ]
  - location: 79 (just consumed gas: 0.057)
    [ 1193046 ]
  - location: 80 (just consumed gas: 0.010)
    [ 1193046
      1193046 ]
  - location: 85 (just consumed gas: 0.035)
    [ 0 ]
  - location: 86 (just consumed gas: 0.010)
    [ True ]
  - location: 87 (just consumed gas: 0.010)
    [  ]
  - location: 87 (just consumed gas: 0.025)
    [  ]
  - location: 93 (just consumed gas: 0.010)
    [ 0x ]
  - location: 96 (just consumed gas: 0.045)
    [ 0 ]
  - location: 97 (just consumed gas: 0.010)
    [ 0
      0 ]
  - location: 102 (just consumed gas: 0.035)
    [ 0 ]
  - location: 103 (just consumed gas: 0.010)
    [ True ]
  - location: 104 (just consumed gas: 0.010)
    [  ]
  - location: 104 (just consumed gas: 0.025)
    [  ]
  - location: 110 (just consumed gas: 0.010)
    [ 0x0000 ]
  - location: 113 (just consumed gas: 0.050)
    [ 0 ]
  - location: 114 (just consumed gas: 0.010)
    [ 0
      0 ]
  - location: 119 (just consumed gas: 0.035)
    [ 0 ]
  - location: 120 (just consumed gas: 0.010)
    [ True ]
  - location: 121 (just consumed gas: 0.010)
    [  ]
  - location: 121 (just consumed gas: 0.025)
    [  ]
  - location: 127 (just consumed gas: 0.010)
    [ Unit ]
  - location: 128 (just consumed gas: 0.010)
    [ {}
      Unit ]
  - location: 130 (just consumed gas: 0.010)
    [ (Pair {} Unit) ]

