
./octez-client --protocol PtParisBxoLz5gzMmn3d9WBQNoPSZakgnkMC2VNuQ3KXfUtUQeZ --mode mockup --no-base-dir-warnings run script michelson_test_scripts/opcodes/not_binary.tz on storage None and input '(Left -8)' --level 1 --trace-stack
storage
  (Some 7)
emitted operations
  
big_map diff
  
trace
  - location: 10 (just consumed gas: 6.822)
    [ (Pair (Left -8) None) ]
  - location: 10 (just consumed gas: 0.010)
    [ (Left -8) ]
  - location: 11 (just consumed gas: 0.010)
    [ -8 ]
  - location: 13 (just consumed gas: 0.025)
    [ 7 ]
  - location: 11 (just consumed gas: 0.025)
    [ 7 ]
  - location: 16 (just consumed gas: 0.010)
    [ (Some 7) ]
  - location: 17 (just consumed gas: 0.010)
    [ {}
      (Some 7) ]
  - location: 19 (just consumed gas: 0.010)
    [ (Pair {} (Some 7)) ]

