
./octez-client --protocol PtParisBxoLz5gzMmn3d9WBQNoPSZakgnkMC2VNuQ3KXfUtUQeZ --mode mockup --no-base-dir-warnings run script michelson_test_scripts/opcodes/map_iter.tz on storage '(Pair 0 0)' and input '{ Elt 1 1 ; Elt 2 100 }' --level 1 --trace-stack
storage
  (Pair 3 101)
emitted operations
  
big_map diff
  
trace
  - location: 11 (just consumed gas: 18.332)
    [ (Pair { Elt 1 1 ; Elt 2 100 } 0 0) ]
  - location: 11 (just consumed gas: 0.010)
    [ { Elt 1 1 ; Elt 2 100 } ]
  - location: 12 (just consumed gas: 0.010)
    [ 0
      { Elt 1 1 ; Elt 2 100 } ]
  - location: 15 (just consumed gas: 0.010)
    [ 0
      0
      { Elt 1 1 ; Elt 2 100 } ]
  - location: 18 (just consumed gas: 0.010)
    [ (Pair 0 0)
      { Elt 1 1 ; Elt 2 100 } ]
  - location: 19 (just consumed gas: 0.010)
    [ { Elt 1 1 ; Elt 2 100 }
      (Pair 0 0) ]
  - location: 20 (just consumed gas: 0.075)
    [ (Pair 1 1)
      (Pair 0 0) ]
  - location: 22 (just consumed gas: 0.010)
    [ (Pair 0 0) ]
  - location: 24 (just consumed gas: 0.010)
    [ (Pair 0 0)
      (Pair 0 0) ]
  - location: 25 (just consumed gas: 0.010)
    [ 0
      (Pair 0 0) ]
  - location: 26 (just consumed gas: 0.010)
    [ (Pair 0 0) ]
  - location: 28 (just consumed gas: 0.010)
    [ 0 ]
  - location: 26 (just consumed gas: 0.035)
    [ 0
      0 ]
  - location: 22 (just consumed gas: 0.035)
    [ (Pair 1 1)
      0
      0 ]
  - location: 29 (just consumed gas: 0.010)
    [ (Pair 1 1)
      (Pair 1 1)
      0
      0 ]
  - location: 30 (just consumed gas: 0.010)
    [ (Pair 1 1)
      0
      0 ]
  - location: 32 (just consumed gas: 0.010)
    [ 1
      0
      0 ]
  - location: 33 (just consumed gas: 0.035)
    [ 1
      0 ]
  - location: 30 (just consumed gas: 0.035)
    [ (Pair 1 1)
      1
      0 ]
  - location: 34 (just consumed gas: 0.010)
    [ 1
      (Pair 1 1)
      0 ]
  - location: 35 (just consumed gas: 0.010)
    [ (Pair 1 1)
      0 ]
  - location: 37 (just consumed gas: 0.010)
    [ 1
      0 ]
  - location: 38 (just consumed gas: 0.035)
    [ 1 ]
  - location: 35 (just consumed gas: 0.035)
    [ 1
      1 ]
  - location: 39 (just consumed gas: 0.010)
    [ (Pair 1 1) ]
  - location: 20 (just consumed gas: 0.025)
    [ (Pair 2 100)
      (Pair 1 1) ]
  - location: 22 (just consumed gas: 0.010)
    [ (Pair 1 1) ]
  - location: 24 (just consumed gas: 0.010)
    [ (Pair 1 1)
      (Pair 1 1) ]
  - location: 25 (just consumed gas: 0.010)
    [ 1
      (Pair 1 1) ]
  - location: 26 (just consumed gas: 0.010)
    [ (Pair 1 1) ]
  - location: 28 (just consumed gas: 0.010)
    [ 1 ]
  - location: 26 (just consumed gas: 0.035)
    [ 1
      1 ]
  - location: 22 (just consumed gas: 0.035)
    [ (Pair 2 100)
      1
      1 ]
  - location: 29 (just consumed gas: 0.010)
    [ (Pair 2 100)
      (Pair 2 100)
      1
      1 ]
  - location: 30 (just consumed gas: 0.010)
    [ (Pair 2 100)
      1
      1 ]
  - location: 32 (just consumed gas: 0.010)
    [ 2
      1
      1 ]
  - location: 33 (just consumed gas: 0.035)
    [ 3
      1 ]
  - location: 30 (just consumed gas: 0.035)
    [ (Pair 2 100)
      3
      1 ]
  - location: 34 (just consumed gas: 0.010)
    [ 3
      (Pair 2 100)
      1 ]
  - location: 35 (just consumed gas: 0.010)
    [ (Pair 2 100)
      1 ]
  - location: 37 (just consumed gas: 0.010)
    [ 100
      1 ]
  - location: 38 (just consumed gas: 0.035)
    [ 101 ]
  - location: 35 (just consumed gas: 0.035)
    [ 3
      101 ]
  - location: 39 (just consumed gas: 0.010)
    [ (Pair 3 101) ]
  - location: 20 (just consumed gas: 0.035)
    [ (Pair 3 101) ]
  - location: 40 (just consumed gas: 0.010)
    [ {}
      (Pair 3 101) ]
  - location: 42 (just consumed gas: 0.010)
    [ (Pair {} 3 101) ]

