
./octez-client --protocol PtParisBxoLz5gzMmn3d9WBQNoPSZakgnkMC2VNuQ3KXfUtUQeZ --mode mockup --no-base-dir-warnings run script michelson_test_scripts/opcodes/slice.tz on storage 'Some "Foo"' and input 'Pair 1 3' --level 1 --trace-stack
storage
  None
emitted operations
  
big_map diff
  
trace
  - location: 10 (just consumed gas: 9.166)
    [ (Pair (Pair 1 3) (Some "Foo")) ]
  - location: 10 (just consumed gas: 0.010)
    [ (Pair 1 3)
      (Some "Foo") ]
  - location: 11 (just consumed gas: 0.010)
    [ (Some "Foo")
      (Pair 1 3) ]
  - location: 13 (just consumed gas: 0.010)
    [ "Foo"
      (Pair 1 3) ]
  - location: 19 (just consumed gas: 0.010)
    [ (Pair 1 3)
      "Foo" ]
  - location: 20 (just consumed gas: 0.010)
    [ 1
      3
      "Foo" ]
  - location: 21 (just consumed gas: 0.026)
    [ None ]
  - location: 13 (just consumed gas: 0.025)
    [ None ]
  - location: 22 (just consumed gas: 0.010)
    [ {}
      None ]
  - location: 24 (just consumed gas: 0.010)
    [ (Pair {} None) ]

