
./octez-client --protocol PtParisBxoLz5gzMmn3d9WBQNoPSZakgnkMC2VNuQ3KXfUtUQeZ --mode mockup --no-base-dir-warnings run script michelson_test_scripts/opcodes/car.tz on storage 0 and input '(Pair 34 17)' --level 1 --trace-stack
storage
  34
emitted operations
  
big_map diff
  
trace
  - location: 9 (just consumed gas: 4.615)
    [ (Pair (Pair 34 17) 0) ]
  - location: 9 (just consumed gas: 0.010)
    [ (Pair 34 17) ]
  - location: 10 (just consumed gas: 0.010)
    [ 34 ]
  - location: 11 (just consumed gas: 0.010)
    [ {}
      34 ]
  - location: 13 (just consumed gas: 0.010)
    [ (Pair {} 34) ]

