
./octez-client --protocol PtParisBxoLz5gzMmn3d9WBQNoPSZakgnkMC2VNuQ3KXfUtUQeZ --mode mockup --no-base-dir-warnings run script michelson_test_scripts/opcodes/add_bls12_381_fr.tz on storage None and input 'Pair 0x010000 0x010000' --level 1 --trace-stack
storage
  (Some 0x0200000000000000000000000000000000000000000000000000000000000000)
emitted operations
  
big_map diff
  
trace
  - location: 10 (just consumed gas: 6.239)
    [ (Pair (Pair 0x0100000000000000000000000000000000000000000000000000000000000000
                  0x0100000000000000000000000000000000000000000000000000000000000000)
            None) ]
  - location: 10 (just consumed gas: 0.010)
    [ (Pair 0x0100000000000000000000000000000000000000000000000000000000000000
            0x0100000000000000000000000000000000000000000000000000000000000000) ]
  - location: 11 (just consumed gas: 0.010)
    [ 0x0100000000000000000000000000000000000000000000000000000000000000
      0x0100000000000000000000000000000000000000000000000000000000000000 ]
  - location: 12 (just consumed gas: 0.030)
    [ 0x0200000000000000000000000000000000000000000000000000000000000000 ]
  - location: 13 (just consumed gas: 0.010)
    [ (Some 0x0200000000000000000000000000000000000000000000000000000000000000) ]
  - location: 14 (just consumed gas: 0.010)
    [ {}
      (Some 0x0200000000000000000000000000000000000000000000000000000000000000) ]
  - location: 16 (just consumed gas: 0.010)
    [ (Pair {}
            (Some 0x0200000000000000000000000000000000000000000000000000000000000000)) ]

