
./octez-client --protocol PtParisBxoLz5gzMmn3d9WBQNoPSZakgnkMC2VNuQ3KXfUtUQeZ --mode mockup --no-base-dir-warnings run script michelson_test_scripts/opcodes/concat_hello_bytes.tz on storage '{}' and input '{ 0xab ; 0xcd }' --level 1 --trace-stack
storage
  { 0xffab ; 0xffcd }
emitted operations
  
big_map diff
  
trace
  - location: 9 (just consumed gas: 6.381)
    [ (Pair { 0xab ; 0xcd } {}) ]
  - location: 9 (just consumed gas: 0.010)
    [ { 0xab ; 0xcd } ]
  - location: 10 (just consumed gas: 0.050)
    [ 0xab ]
  - location: 12 (just consumed gas: 0.010)
    [ 0xff
      0xab ]
  - location: 15 (just consumed gas: 0.046)
    [ 0xffab ]
  - location: 10 (just consumed gas: 0.055)
    [ 0xcd ]
  - location: 12 (just consumed gas: 0.010)
    [ 0xff
      0xcd ]
  - location: 15 (just consumed gas: 0.046)
    [ 0xffcd ]
  - location: 10 (just consumed gas: 0.068)
    [ { 0xffab ; 0xffcd } ]
  - location: 16 (just consumed gas: 0.010)
    [ {}
      { 0xffab ; 0xffcd } ]
  - location: 18 (just consumed gas: 0.010)
    [ (Pair {} { 0xffab ; 0xffcd }) ]

