
./octez-client --protocol PtParisBxoLz5gzMmn3d9WBQNoPSZakgnkMC2VNuQ3KXfUtUQeZ --mode mockup --no-base-dir-warnings run script michelson_test_scripts/opcodes/get_map_value.tz on storage '(Pair None { Elt "hello" "hi" })' and input '""' --level 1 --trace-stack
storage
  (Pair None { Elt "hello" "hi" })
emitted operations
  
big_map diff
  
trace
  - location: 12 (just consumed gas: 10.507)
    [ (Pair "" None { Elt "hello" "hi" }) ]
  - location: 12 (just consumed gas: 0.010)
    [ (Pair "" None { Elt "hello" "hi" })
      (Pair "" None { Elt "hello" "hi" }) ]
  - location: 13 (just consumed gas: 0.010)
    [ ""
      (Pair "" None { Elt "hello" "hi" }) ]
  - location: 14 (just consumed gas: 0.010)
    [ (Pair "" None { Elt "hello" "hi" }) ]
  - location: 17 (just consumed gas: 0.010)
    [ (Pair None { Elt "hello" "hi" }) ]
  - location: 18 (just consumed gas: 0.010)
    [ { Elt "hello" "hi" } ]
  - location: 19 (just consumed gas: 0.010)
    [ { Elt "hello" "hi" }
      { Elt "hello" "hi" } ]
  - location: 14 (just consumed gas: 0.035)
    [ ""
      { Elt "hello" "hi" }
      { Elt "hello" "hi" } ]
  - location: 20 (just consumed gas: 0.045)
    [ None
      { Elt "hello" "hi" } ]
  - location: 21 (just consumed gas: 0.010)
    [ (Pair None { Elt "hello" "hi" }) ]
  - location: 22 (just consumed gas: 0.010)
    [ {}
      (Pair None { Elt "hello" "hi" }) ]
  - location: 24 (just consumed gas: 0.010)
    [ (Pair {} None { Elt "hello" "hi" }) ]

