[
  {
    "file": "src/proto_alpha/lib_protocol/test/unit/test_sc_rollup_storage.ml",
    "title": "alpha: sc rollup storage (removed staker can not withdraw)",
    "tags": [
      "alcotezt",
      "quick",
      "alpha"
    ],
    "successful_runs": {
      "total_time": "26340",
      "count": "1"
    }
  },
  {
    "file": "src/proto_alpha/lib_protocol/test/unit/test_sc_rollup_management_protocol.ml",
    "title": "alpha: sc rollup management protocol (Encode/decode internal inbox message start of level)",
    "tags": [
      "alcotezt",
      "quick",
      "alpha"
    ],
    "successful_runs": {
      "total_time": "533",
      "count": "1"
    }
  },
  {
    "file": "src/proto_alpha/lib_protocol/test/unit/test_liquidity_baking_repr.ml",
    "title": "alpha: liquidity baking (EMA decreases when vote is On)",
    "tags": [
      "alcotezt",
      "quick",
      "alpha"
    ],
    "successful_runs": {
      "total_time": "579",
      "count": "1"
    }
  },
  {
    "file": "src/proto_alpha/lib_protocol/test/pbt/test_carbonated_map.ml",
    "title": "alpha: Carbonated map (Merge overlap by adding)",
    "tags": [
      "alcotezt",
      "quick",
      "alpha"
    ],
    "successful_runs": {
      "total_time": "23494",
      "count": "1"
    }
  },
  {
    "file": "src/proto_alpha/lib_protocol/test/integration/validate/test_manager_operation_validation.ml",
    "title": "alpha: single manager validation (too much gas consumption in mempool)",
    "tags": [
      "alcotezt",
      "quick",
      "alpha"
    ],
    "successful_runs": {
      "total_time": "12261627",
      "count": "1"
    }
  },
  {
    "file": "src/proto_alpha/lib_protocol/test/integration/operations/test_voting.ml",
    "title": "alpha: voting (Proposals wrong voting period index)",
    "tags": [
      "alcotezt",
      "quick",
      "alpha"
    ],
    "successful_runs": {
      "total_time": "22879",
      "count": "1"
    }
  },
  {
    "file": "src/proto_alpha/lib_protocol/test/integration/operations/test_transfer.ml",
    "title": "alpha: transfer (empty implicit)",
    "tags": [
      "alcotezt",
      "quick",
      "alpha"
    ],
    "successful_runs": {
      "total_time": "11142",
      "count": "1"
    }
  },
  {
    "file": "src/proto_alpha/lib_protocol/test/integration/operations/test_sc_rollup.ml",
    "title": "alpha: sc rollup (Two invalid final moves end the game in a draw situation)",
    "tags": [
      "alcotezt",
      "quick",
      "alpha"
    ],
    "successful_runs": {
      "total_time": "87640",
      "count": "1"
    }
  },
  {
    "file": "src/proto_alpha/lib_protocol/test/integration/operations/test_reveal.ml",
    "title": "alpha: revelation (cannot re-reveal an account with fake keys and signature)",
    "tags": [
      "alcotezt",
      "quick",
      "alpha"
    ],
    "successful_runs": {
      "total_time": "18435",
      "count": "1"
    }
  },
  {
    "file": "src/proto_alpha/lib_protocol/test/integration/operations/test_origination.ml",
    "title": "alpha: orgination (counter)",
    "tags": [
      "alcotezt",
      "quick",
      "alpha"
    ],
    "successful_runs": {
      "total_time": "21367",
      "count": "1"
    }
  },
  {
    "file": "src/proto_alpha/lib_protocol/test/integration/operations/test_combined_operations.ml",
    "title": "alpha: combined (Failing operation in the middle (with fees))",
    "tags": [
      "alcotezt",
      "quick",
      "alpha"
    ],
    "successful_runs": {
      "total_time": "25644",
      "count": "1"
    }
  },
  {
    "file": "src/proto_alpha/lib_protocol/test/integration/michelson/test_ticket_operations_diff.ml",
    "title": "alpha: ticket operations diff (transfer big-map with tickets)",
    "tags": [
      "alcotezt",
      "quick",
      "alpha"
    ],
    "successful_runs": {
      "total_time": "41773",
      "count": "1"
    }
  },
  {
    "file": "src/proto_alpha/lib_protocol/test/integration/michelson/test_ticket_balance.ml",
    "title": "alpha: ticket balance (send drop)",
    "tags": [
      "alcotezt",
      "quick",
      "alpha"
    ],
    "successful_runs": {
      "total_time": "19539",
      "count": "1"
    }
  },
  {
    "file": "src/proto_alpha/lib_protocol/test/integration/consensus/test_frozen_deposits.ml",
    "title": "alpha: frozen deposits (unset deposits limit)",
    "tags": [
      "alcotezt",
      "quick",
      "alpha"
    ],
    "successful_runs": {
      "total_time": "33632",
      "count": "1"
    }
  },
  {
    "file": "src/proto_alpha/lib_protocol/test/integration/consensus/test_double_baking.ml",
    "title": "alpha: double baking (same blocks)",
    "tags": [
      "alcotezt",
      "quick",
      "alpha"
    ],
    "successful_runs": {
      "total_time": "24768",
      "count": "1"
    }
  },
  {
    "file": "src/proto_alpha/lib_protocol/test/integration/consensus/test_delegation.ml",
    "title": "alpha: delegation (double registration)",
    "tags": [
      "alcotezt",
      "quick",
      "alpha"
    ],
    "successful_runs": {
      "total_time": "17342",
      "count": "1"
    }
  },
  {
    "file": "src/proto_alpha/lib_protocol/test/integration/test_adaptive_issuance_roundtrip.ml",
    "title": "alpha: adaptive issuance roundtrip (Test double roundtrip: AI activated, self stake, no wait after stake, half then half unstake)",
    "tags": [
      "alcotezt",
      "quick",
      "alpha"
    ],
    "successful_runs": {
      "total_time": "361124",
      "count": "1"
    }
  },
  {
    "file": "src/proto_alpha/lib_protocol/test/integration/test_adaptive_issuance_roundtrip.ml",
    "title": "alpha: adaptive issuance roundtrip (Test wait with rewards: cycle step)",
    "tags": [
      "alcotezt",
      "quick",
      "alpha"
    ],
    "successful_runs": {
      "total_time": "590173",
      "count": "1"
    }
  },
  {
    "file": "src/proto_alpha/lib_protocol/test/integration/test_adaptive_issuance_roundtrip.ml",
    "title": "alpha: adaptive issuance roundtrip (Test simple slashing: ns_enable = true, Yes AI, double attesting, denounce same cycle)",
    "tags": [
      "alcotezt",
      "quick",
      "alpha"
    ],
    "successful_runs": {
      "total_time": "302670",
      "count": "1"
    }
  },
  {
    "file": "src/proto_alpha/lib_protocol/test/integration/test_adaptive_issuance_roundtrip.ml",
    "title": "alpha: adaptive issuance roundtrip (Test simple slashing: ns_enable = false, No AI, double preattesting, denounce same cycle, another slash, double preattesting)",
    "tags": [
      "alcotezt",
      "quick",
      "alpha"
    ],
    "successful_runs": {
      "total_time": "107217",
      "count": "1"
    }
  },
  {
    "file": "src/proto_alpha/lib_protocol/test/integration/test_adaptive_issuance_roundtrip.ml",
    "title": "alpha: adaptive issuance roundtrip (Test slash timing: ns_enable = true, unstake, without another slash)",
    "tags": [
      "alcotezt",
      "quick",
      "alpha"
    ],
    "successful_runs": {
      "total_time": "76756",
      "count": "1"
    }
  },
  {
    "file": "src/proto_alpha/lib_dac_plugin/test/test_dac_pages_encoding.ml",
    "title": "alpha: [Unit] Dac_pages_encoding.ml (Hashes pages are not larger than expected)",
    "tags": [
      "alcotezt",
      "quick",
      "alpha"
    ],
    "successful_runs": {
      "total_time": "240",
      "count": "1"
    }
  },
  {
    "file": "src/proto_alpha/lib_client/test/test_michelson_v1_macros.ml",
    "title": "alpha: micheline v1 macros (assert left annot expansion)",
    "tags": [
      "alcotezt",
      "quick",
      "alpha"
    ],
    "successful_runs": {
      "total_time": "281",
      "count": "1"
    }
  },
  {
    "file": "src/proto_018_Proxford/lib_protocol/test/unit/test_zk_rollup_storage.ml",
    "title": "018-Proxford: zk rollup storage (pending_list_get errors)",
    "tags": [
      "alcotezt",
      "quick",
      "oxford"
    ],
    "successful_runs": {
      "total_time": "1244070",
      "count": "1"
    }
  },
  {
    "file": "src/proto_018_Proxford/lib_protocol/test/unit/test_sc_rollup_storage.ml",
    "title": "018-Proxford: sc rollup storage (fetching commitment of missing rollup fails)",
    "tags": [
      "alcotezt",
      "quick",
      "oxford"
    ],
    "successful_runs": {
      "total_time": "19143",
      "count": "1"
    }
  },
  {
    "file": "src/proto_018_Proxford/lib_protocol/test/unit/test_destination_repr.ml",
    "title": "018-Proxford: Destination_repr.ml (Binary Destination_repr to Contract_repr (liquidity baking dex))",
    "tags": [
      "alcotezt",
      "quick",
      "oxford"
    ],
    "successful_runs": {
      "total_time": "365",
      "count": "1"
    }
  },
  {
    "file": "src/proto_018_Proxford/lib_protocol/test/integration/operations/test_sc_rollup.ml",
    "title": "018-Proxford: sc rollup (win refutation game by forfeit)",
    "tags": [
      "alcotezt",
      "quick",
      "oxford"
    ],
    "successful_runs": {
      "total_time": "124052",
      "count": "1"
    }
  },
  {
    "file": "src/proto_018_Proxford/lib_protocol/test/integration/michelson/test_typechecking.ml",
    "title": "018-Proxford: typechecking (typecheck stack overflow error)",
    "tags": [
      "alcotezt",
      "quick",
      "oxford"
    ],
    "successful_runs": {
      "total_time": "154645",
      "count": "1"
    }
  },
  {
    "file": "src/proto_018_Proxford/lib_protocol/test/integration/michelson/test_ticket_storage.ml",
    "title": "018-Proxford: ticket storage (ticket balance single update)",
    "tags": [
      "alcotezt",
      "quick",
      "oxford"
    ],
    "successful_runs": {
      "total_time": "13651",
      "count": "1"
    }
  },
  {
    "file": "src/proto_018_Proxford/lib_protocol/test/integration/michelson/test_ticket_lazy_storage_diff.ml",
    "title": "018-Proxford: ticket lazy storage diff (copy with updates)",
    "tags": [
      "alcotezt",
      "quick",
      "oxford"
    ],
    "successful_runs": {
      "total_time": "12810",
      "count": "1"
    }
  },
  {
    "file": "src/proto_018_Proxford/lib_protocol/test/integration/michelson/test_ticket_accounting.ml",
    "title": "018-Proxford: ticket accounting (Diffs empty)",
    "tags": [
      "alcotezt",
      "quick",
      "oxford"
    ],
    "successful_runs": {
      "total_time": "15007",
      "count": "1"
    }
  },
  {
    "file": "src/proto_018_Proxford/lib_protocol/test/integration/michelson/test_script_cache.ml",
    "title": "018-Proxford: script cache (size returns entries size)",
    "tags": [
      "alcotezt",
      "quick",
      "oxford"
    ],
    "successful_runs": {
      "total_time": "69110",
      "count": "1"
    }
  },
  {
    "file": "src/proto_018_Proxford/lib_protocol/test/integration/michelson/test_sapling.ml",
    "title": "018-Proxford: sapling (transac_and_block)",
    "tags": [
      "alcotezt",
      "quick",
      "oxford"
    ],
    "successful_runs": {
      "total_time": "4737534",
      "count": "1"
    }
  },
  {
    "file": "src/proto_018_Proxford/lib_protocol/test/integration/gas/test_gas_levels.ml",
    "title": "018-Proxford: gas levels (bake one operation list with contract nil)",
    "tags": [
      "alcotezt",
      "quick",
      "oxford"
    ],
    "successful_runs": {
      "total_time": "24158",
      "count": "1"
    }
  },
  {
    "file": "src/proto_018_Proxford/lib_protocol/test/integration/consensus/test_preattestation.ml",
    "title": "018-Proxford: preattestation (ConstrMode: ko: duplicate_preattestation_in_pqc)",
    "tags": [
      "alcotezt",
      "quick",
      "oxford"
    ],
    "successful_runs": {
      "total_time": "28481",
      "count": "1"
    }
  },
  {
    "file": "src/proto_018_Proxford/lib_protocol/test/integration/consensus/test_double_preattestation.ml",
    "title": "018-Proxford: double preattestation (ConstrMode: double_preattestation_denunciation_after_slashing_period)",
    "tags": [
      "alcotezt",
      "quick",
      "oxford"
    ],
    "successful_runs": {
      "total_time": "65224",
      "count": "1"
    }
  },
  {
    "file": "src/proto_018_Proxford/lib_protocol/test/integration/consensus/test_delegation.ml",
    "title": "018-Proxford: delegation (unregistered delegate key (init with delegation, max fee))",
    "tags": [
      "alcotezt",
      "quick",
      "oxford"
    ],
    "successful_runs": {
      "total_time": "19375",
      "count": "1"
    }
  },
  {
    "file": "src/proto_018_Proxford/lib_protocol/test/integration/consensus/test_consensus_key.ml",
    "title": "018-Proxford: consensus key (drain delegate high balance, with ck, ck does not delegate)",
    "tags": [
      "alcotezt",
      "quick",
      "oxford"
    ],
    "successful_runs": {
      "total_time": "53642",
      "count": "1"
    }
  },
  {
    "file": "src/proto_018_Proxford/lib_protocol/test/integration/test_liquidity_baking.ml",
    "title": "018-Proxford: liquidity baking (liquidity baking script hashes)",
    "tags": [
      "alcotezt",
      "quick",
      "oxford"
    ],
    "successful_runs": {
      "total_time": "13082",
      "count": "1"
    }
  },
  {
    "file": "src/proto_018_Proxford/lib_protocol/test/integration/test_adaptive_issuance_roundtrip.ml",
    "title": "018-Proxford: adaptive issuance roundtrip (Test preserved balance: AI activated, external stake, 2 unstakes)",
    "tags": [
      "alcotezt",
      "quick",
      "oxford"
    ],
    "successful_runs": {
      "total_time": "677064",
      "count": "1"
    }
  },
  {
    "file": "src/proto_018_Proxford/lib_protocol/test/integration/test_adaptive_issuance_roundtrip.ml",
    "title": "018-Proxford: adaptive issuance roundtrip (Test wait with rewards: wait AI activation, cycle step)",
    "tags": [
      "alcotezt",
      "quick",
      "oxford"
    ],
    "successful_runs": {
      "total_time": "773849",
      "count": "1"
    }
  },
  {
    "file": "src/proto_018_Proxford/lib_protocol/test/integration/test_adaptive_issuance_roundtrip.ml",
    "title": "018-Proxford: adaptive issuance roundtrip (Test simple slashing: Yes AI, double preattesting, denounce same cycle)",
    "tags": [
      "alcotezt",
      "quick",
      "oxford"
    ],
    "successful_runs": {
      "total_time": "398509",
      "count": "1"
    }
  },
  {
    "file": "src/proto_018_Proxford/lib_dal/test/test_dal_slot_frame_encoding.ml",
    "title": "018-Proxford: [Unit] Slot_framing_protocol.ml (Slot decoding fails when slot size is too big (V0))",
    "tags": [
      "alcotezt",
      "quick",
      "oxford"
    ],
    "successful_runs": {
      "total_time": "221",
      "count": "1"
    }
  },
  {
    "file": "src/proto_018_Proxford/lib_client/test/test_michelson_v1_macros.ml",
    "title": "018-Proxford: micheline v1 macros (diip expansion)",
    "tags": [
      "alcotezt",
      "quick",
      "oxford"
    ],
    "successful_runs": {
      "total_time": "224",
      "count": "1"
    }
  },
  {
    "file": "src/proto_017_PtNairob/lib_protocol/test/unit/test_sc_rollup_storage.ml",
    "title": "017-PtNairob: sc rollup storage (deposit on two rollups)",
    "tags": [
      "alcotezt",
      "quick",
      "nairobi"
    ],
    "successful_runs": {
      "total_time": "39710",
      "count": "1"
    }
  },
  {
    "file": "src/proto_017_PtNairob/lib_protocol/test/unit/test_round_repr.ml",
    "title": "017-PtNairob: round (round_of_ts (ts_of_round r) = r)",
    "tags": [
      "alcotezt",
      "quick",
      "nairobi"
    ],
    "successful_runs": {
      "total_time": "986",
      "count": "1"
    }
  },
  {
    "file": "src/proto_017_PtNairob/lib_protocol/test/unit/test_liquidity_baking_repr.ml",
    "title": "017-PtNairob: liquidity baking (EMA does not decrease too much when vote is On)",
    "tags": [
      "alcotezt",
      "quick",
      "nairobi"
    ],
    "successful_runs": {
      "total_time": "226",
      "count": "1"
    }
  },
  {
    "file": "src/proto_017_PtNairob/lib_protocol/test/unit/test_contract_repr.ml",
    "title": "017-PtNairob: Contract_repr.ml (Contract_repr.to_b58check: must correctly stringify, b58check encoded, an implicit contract)",
    "tags": [
      "alcotezt",
      "quick",
      "nairobi"
    ],
    "successful_runs": {
      "total_time": "197",
      "count": "1"
    }
  },
  {
    "file": "src/proto_017_PtNairob/lib_protocol/test/regression/test_logging.ml",
    "title": "017_PtNairob: append",
    "tags": [
      "regression",
      "protocol",
      "regression",
      "logging"
    ],
    "successful_runs": {
      "total_time": "18673",
      "count": "1"
    }
  },
  {
    "file": "src/proto_017_PtNairob/lib_protocol/test/integration/operations/test_voting.ml",
    "title": "017-PtNairob: voting (Ballot invalid signature)",
    "tags": [
      "alcotezt",
      "quick",
      "nairobi"
    ],
    "successful_runs": {
      "total_time": "14706",
      "count": "1"
    }
  },
  {
    "file": "src/proto_017_PtNairob/lib_protocol/test/integration/operations/test_sc_rollup.ml",
    "title": "017-PtNairob: sc rollup (originating with invalid kind proof)",
    "tags": [
      "alcotezt",
      "quick",
      "nairobi"
    ],
    "successful_runs": {
      "total_time": "11265",
      "count": "1"
    }
  },
  {
    "file": "src/proto_017_PtNairob/lib_protocol/test/integration/operations/test_paid_storage_increase.ml",
    "title": "017-PtNairob: paid storage increase (balances simple)",
    "tags": [
      "alcotezt",
      "quick",
      "nairobi"
    ],
    "successful_runs": {
      "total_time": "13288",
      "count": "1"
    }
  },
  {
    "file": "src/proto_017_PtNairob/lib_protocol/test/integration/michelson/test_ticket_lazy_storage_diff.ml",
    "title": "017-PtNairob: ticket lazy storage diff (update and remove same key multiple times on existing big-map)",
    "tags": [
      "alcotezt",
      "quick",
      "nairobi"
    ],
    "successful_runs": {
      "total_time": "37983",
      "count": "1"
    }
  },
  {
    "file": "src/proto_017_PtNairob/lib_protocol/test/integration/michelson/test_ticket_accounting.ml",
    "title": "017-PtNairob: ticket accounting (Diffs for dropped ticket)",
    "tags": [
      "alcotezt",
      "quick",
      "nairobi"
    ],
    "successful_runs": {
      "total_time": "14197",
      "count": "1"
    }
  },
  {
    "file": "src/proto_017_PtNairob/lib_protocol/test/integration/michelson/test_script_cache.ml",
    "title": "017-PtNairob: script cache (size limit is a protocol constant)",
    "tags": [
      "alcotezt",
      "quick",
      "nairobi"
    ],
    "successful_runs": {
      "total_time": "12706",
      "count": "1"
    }
  },
  {
    "file": "src/proto_017_PtNairob/lib_protocol/test/integration/consensus/test_frozen_deposits.ml",
    "title": "017-PtNairob: frozen deposits (unfreeze deposits after deactivation)",
    "tags": [
      "alcotezt",
      "quick",
      "nairobi"
    ],
    "successful_runs": {
      "total_time": "205868",
      "count": "1"
    }
  },
  {
    "file": "src/proto_017_PtNairob/lib_protocol/test/integration/consensus/test_double_preendorsement.ml",
    "title": "017-PtNairob: double preendorsement (ConstrMode: ko: malformed_double_preendorsement_denunciation_same_payload_hash_2)",
    "tags": [
      "alcotezt",
      "quick",
      "nairobi"
    ],
    "successful_runs": {
      "total_time": "26360",
      "count": "1"
    }
  },
  {
    "file": "src/proto_017_PtNairob/lib_protocol/test/integration/consensus/test_delegation.ml",
    "title": "017-PtNairob: delegation (unregistered delegate key (origination, small fee))",
    "tags": [
      "alcotezt",
      "quick",
      "nairobi"
    ],
    "successful_runs": {
      "total_time": "45979",
      "count": "1"
    }
  },
  {
    "file": "src/proto_017_PtNairob/lib_protocol/test/integration/test_token.ml",
    "title": "017-PtNairob: token movements (transfer - balances)",
    "tags": [
      "alcotezt",
      "quick",
      "nairobi"
    ],
    "successful_runs": {
      "total_time": "10205",
      "count": "1"
    }
  },
  {
    "file": "src/proto_017_PtNairob/lib_protocol/test/integration/test_constants.ml",
    "title": "017-PtNairob: constants (max_operations_ttl)",
    "tags": [
      "alcotezt",
      "quick",
      "nairobi"
    ],
    "successful_runs": {
      "total_time": "148",
      "count": "1"
    }
  },
  {
    "file": "src/proto_017_PtNairob/lib_dal/test/test_dal_slot_frame_encoding.ml",
    "title": "017-PtNairob: [Unit] Slot_framing_protocol.ml (Encoded slot has expected size (V0, 1 rollup))",
    "tags": [
      "alcotezt",
      "quick",
      "nairobi"
    ],
    "successful_runs": {
      "total_time": "122",
      "count": "1"
    }
  },
  {
    "file": "src/proto_017_PtNairob/lib_client/test/test_michelson_v1_macros.ml",
    "title": "017-PtNairob: micheline v1 macros (assert right expansion)",
    "tags": [
      "alcotezt",
      "quick",
      "nairobi"
    ],
    "successful_runs": {
      "total_time": "174",
      "count": "1"
    }
  },
  {
    "file": "src/lib_store/unix/test/test_consistency.ml",
    "title": "tezos-store: consistency (protocol level consistency (Archive mode): drop protocol #3)",
    "tags": [
      "alcotezt",
      "quick"
    ],
    "successful_runs": {
      "total_time": "247583",
      "count": "1"
    }
  },
  {
    "file": "src/lib_store/unix/test/test.ml",
    "title": "tezos-store: snapshots (export => import with 77 initial blocks from Full mode + 1 extra cycles to rolling (exported block at checkpoint) using tar (single file) format)",
    "tags": [
      "alcotezt",
      "quick"
    ],
    "successful_runs": {
      "total_time": "2852215",
      "count": "1"
    }
  },
  {
    "file": "src/lib_store/unix/test/test.ml",
    "title": "tezos-store: history_mode_switch (switching from Rolling mode to Full mode + 1 extra cycles with 72 blocks baked and cycle length 8)",
    "tags": [
      "alcotezt",
      "quick"
    ],
    "successful_runs": {
      "total_time": "1072113",
      "count": "1"
    }
  },
  {
    "file": "src/lib_shell/test/test_synchronisation_heuristic.ml",
    "title": "tezos-shell: synchronisation heuristic sync (Threshold is two)",
    "tags": [
      "alcotezt",
      "quick"
    ],
    "successful_runs": {
      "total_time": "550",
      "count": "1"
    }
  },
  {
    "file": "src/lib_scoru_wasm/test/test_wasm_pvm.ml",
    "title": "test lib scoru wasm: WASM PVM (Test unreachable kernel (tick per tick) (2.0.0-r2))",
    "tags": [
      "alcotezt",
      "quick"
    ],
    "successful_runs": {
      "total_time": "31677317",
      "count": "1"
    }
  },
  {
    "file": "src/lib_scoru_wasm/test/test_wasm_pvm.ml",
    "title": "test lib scoru wasm: WASM PVM (Test durable store io (2.0.0-r2))",
    "tags": [
      "alcotezt",
      "quick"
    ],
    "successful_runs": {
      "total_time": "14591",
      "count": "1"
    }
  },
  {
    "file": "src/lib_scoru_wasm/test/test_wasm_pvm.ml",
    "title": "test lib scoru wasm: WASM PVM (Test scheduling with 10 inputs in a unique inbox (2.0.0-r2))",
    "tags": [
      "alcotezt",
      "quick"
    ],
    "successful_runs": {
      "total_time": "4028",
      "count": "1"
    }
  },
  {
    "file": "src/lib_scoru_wasm/test/test_reveal.ml",
    "title": "test lib scoru wasm: Reveal (Test reveal_metadata (2.0.0-r1))",
    "tags": [
      "alcotezt",
      "quick"
    ],
    "successful_runs": {
      "total_time": "3657",
      "count": "1"
    }
  },
  {
    "file": "src/lib_scoru_wasm/test/test_init.ml",
    "title": "test lib scoru wasm: Module Initialisation (32 bits float types are forbidden (2.0.0-r4))",
    "tags": [
      "alcotezt",
      "quick"
    ],
    "successful_runs": {
      "total_time": "1255",
      "count": "1"
    }
  },
  {
    "file": "src/lib_scoru_wasm/test/test_hash_consistency.ml",
    "title": "test lib scoru wasm: Hash correspondence (Executions correspondence (ticks 0 to 1,000) (2.0.0-r3))",
    "tags": [
      "alcotezt",
      "quick"
    ],
    "successful_runs": {
      "total_time": "11271074",
      "count": "1"
    }
  },
  {
    "file": "src/lib_scoru_wasm/test/test_durable_storage.ml",
    "title": "test lib scoru wasm: Durable storage (store_get_hash (2.0.0-r3))",
    "tags": [
      "alcotezt",
      "quick"
    ],
    "successful_runs": {
      "total_time": "1325",
      "count": "1"
    }
  },
  {
    "file": "src/lib_scoru_wasm/test/test_debug.ml",
    "title": "test lib scoru wasm: Debug (debug during init (2.0.0-r3))",
    "tags": [
      "alcotezt",
      "quick"
    ],
    "successful_runs": {
      "total_time": "755",
      "count": "1"
    }
  },
  {
    "file": "src/lib_scoru_wasm/regressions/tezos_scoru_wasm_regressions.ml",
    "title": "kernel link_store_exists run (proof, v1)",
    "tags": [
      "regression",
      "wasm_2_0_0",
      "link_store_exists",
      "proof",
      "v1"
    ],
    "successful_runs": {
      "total_time": "456118",
      "count": "1"
    }
  },
  {
    "file": "src/lib_scoru_wasm/fast/test/test_fast.ml",
    "title": "test lib scoru-wasm-fast: Fast Execution (compute_step_many recovers correctly after kernel panics (2.0.0-r2))",
    "tags": [
      "alcotezt",
      "quick"
    ],
    "successful_runs": {
      "total_time": "253160",
      "count": "1"
    }
  },
  {
    "file": "src/lib_sapling/test/test_merkle.ml",
    "title": "sapling: merkle (merkle)",
    "tags": [
      "alcotezt",
      "quick"
    ],
    "successful_runs": {
      "total_time": "8763113",
      "count": "1"
    }
  },
  {
    "file": "src/lib_rpc_http/test/test_rpc_http.ml",
    "title": "tezos-rpc-http: test_matching_with_name_resolving (make sure addresses match well with domain name resolving)",
    "tags": [
      "alcotezt",
      "quick"
    ],
    "successful_runs": {
      "total_time": "227",
      "count": "1"
    }
  },
  {
    "file": "src/lib_polynomial/test/test_with_finite_field.ml",
    "title": "Polynomials with F379 and some random prime fields: Tests on degrees, field order = 277749917 (degree int test vectors)",
    "tags": [
      "alcotezt",
      "quick"
    ],
    "successful_runs": {
      "total_time": "185",
      "count": "1"
    }
  },
  {
    "file": "src/lib_polynomial/test/test_with_finite_field.ml",
    "title": "Polynomials with F379 and some random prime fields: Euclidian division for prime field 143223727 (test vectors for random)",
    "tags": [
      "alcotezt",
      "quick"
    ],
    "successful_runs": {
      "total_time": "81269",
      "count": "1"
    }
  },
  {
    "file": "src/lib_polynomial/test/test_with_finite_field.ml",
    "title": "Polynomials with F379 and some random prime fields: Polynomial multiplication for prime field 143223727 (test properties distributivity and communtativity a p * b q = (a * b) (p * q) = (b p) * (a q) = p * (a * b) q)",
    "tags": [
      "alcotezt",
      "quick"
    ],
    "successful_runs": {
      "total_time": "4224",
      "count": "1"
    }
  },
  {
    "file": "src/lib_polynomial/test/test_with_finite_field.ml",
    "title": "Polynomials with F379 and some random prime fields: Test evaluation, field order = 57896044618658097711785492504343953926634992332820282019728792003956564819949 (evaluation at zero of a random constant polynomial)",
    "tags": [
      "alcotezt",
      "quick"
    ],
    "successful_runs": {
      "total_time": "277",
      "count": "1"
    }
  },
  {
    "file": "src/lib_mec/test/test_vesta_projective.ml",
    "title": "Vesta projective coordinates: Group properties (check_bytes_one)",
    "tags": [
      "alcotezt",
      "quick"
    ],
    "successful_runs": {
      "total_time": "195",
      "count": "1"
    }
  },
  {
    "file": "src/lib_mec/test/test_vesta_affine.ml",
    "title": "Vesta affine coordinates: value generation (check bytes on random with to_bytes)",
    "tags": [
      "alcotezt",
      "quick"
    ],
    "successful_runs": {
      "total_time": "13314",
      "count": "1"
    }
  },
  {
    "file": "src/lib_mec/test/test_tweedledum_projective.ml",
    "title": "Tweedledum projective coordinates: value generation (double_with_one)",
    "tags": [
      "alcotezt",
      "quick"
    ],
    "successful_runs": {
      "total_time": "221",
      "count": "1"
    }
  },
  {
    "file": "src/lib_mec/test/test_tweedledum_jacobian.ml",
    "title": "Tweedledum jacobian coordinates: Group properties (opposite_of_opposite)",
    "tags": [
      "alcotezt",
      "quick"
    ],
    "successful_runs": {
      "total_time": "15187",
      "count": "1"
    }
  },
  {
    "file": "src/lib_mec/test/test_tweedledum_affine.ml",
    "title": "Tweedledum affine coordinates: Group properties (additive_associativity_with_scalar)",
    "tags": [
      "alcotezt",
      "quick"
    ],
    "successful_runs": {
      "total_time": "1281893",
      "count": "1"
    }
  },
  {
    "file": "src/lib_mec/test/test_tweedledee_jacobian.ml",
    "title": "Tweedledee jacobian coordinates: value generation (double_with_zero)",
    "tags": [
      "alcotezt",
      "quick"
    ],
    "successful_runs": {
      "total_time": "341",
      "count": "1"
    }
  },
  {
    "file": "src/lib_mec/test/test_tweedledee_affine.ml",
    "title": "Tweedledee affine coordinates: Group properties (opposite_of_opposite_of_zero_is_zero)",
    "tags": [
      "alcotezt",
      "quick"
    ],
    "successful_runs": {
      "total_time": "226",
      "count": "1"
    }
  },
  {
    "file": "src/lib_mec/test/test_secp256r1_jacobian.ml",
    "title": "secp256r1 jacobian coordinates: value generation (double_with_zero)",
    "tags": [
      "alcotezt",
      "quick"
    ],
    "successful_runs": {
      "total_time": "230",
      "count": "1"
    }
  },
  {
    "file": "src/lib_mec/test/test_secp256r1_affine.ml",
    "title": "secp256r1 affine coordinates: Group properties (opposite_of_opposite_of_zero_is_zero)",
    "tags": [
      "alcotezt",
      "quick"
    ],
    "successful_runs": {
      "total_time": "177",
      "count": "1"
    }
  },
  {
    "file": "src/lib_mec/test/test_secp256k1_projective.ml",
    "title": "secp256k1 projective coordinates: Group properties (check_bytes_random)",
    "tags": [
      "alcotezt",
      "quick"
    ],
    "successful_runs": {
      "total_time": "6407",
      "count": "1"
    }
  },
  {
    "file": "src/lib_mec/test/test_secp256k1_affine.ml",
    "title": "secp256k1 affine coordinates: value generation (double generates a valid point)",
    "tags": [
      "alcotezt",
      "quick"
    ],
    "successful_runs": {
      "total_time": "6313",
      "count": "1"
    }
  },
  {
    "file": "src/lib_mec/test/test_pedersen_hash.ml",
    "title": "Pedersen Hash Zcash: Vectors (Test vector from zcash primitives)",
    "tags": [
      "alcotezt",
      "quick"
    ],
    "successful_runs": {
      "total_time": "166316",
      "count": "1"
    }
  },
  {
    "file": "src/lib_mec/test/test_pallas_jacobian.ml",
    "title": "Pallas jacobian coordinates: equality (random_same_objects)",
    "tags": [
      "alcotezt",
      "quick"
    ],
    "successful_runs": {
      "total_time": "23452",
      "count": "1"
    }
  },
  {
    "file": "src/lib_mec/test/test_pallas_affine.ml",
    "title": "Pallas affine coordinates: Group properties (mul_by_order_of_base_field_equals_element)",
    "tags": [
      "alcotezt",
      "quick"
    ],
    "successful_runs": {
      "total_time": "842010",
      "count": "1"
    }
  },
  {
    "file": "src/lib_mec/test/test_jubjub_weierstrass.ml",
    "title": "Jubjub - Weierstrass - Affine coordinates: Group properties (opposite_of_zero_is_zero)",
    "tags": [
      "alcotezt",
      "quick"
    ],
    "successful_runs": {
      "total_time": "221",
      "count": "1"
    }
  },
  {
    "file": "src/lib_mec/test/test_jubjub.ml",
    "title": "Jubjub: equality (random_same_objects)",
    "tags": [
      "alcotezt",
      "quick"
    ],
    "successful_runs": {
      "total_time": "27806",
      "count": "1"
    }
  },
  {
    "file": "src/lib_mec/test/test_iso_pallas_affine.ml",
    "title": "Iso Pallas affine form: Group properties (opposite_of_scalar_is_opposite_of_ec)",
    "tags": [
      "alcotezt",
      "quick"
    ],
    "successful_runs": {
      "total_time": "988662",
      "count": "1"
    }
  },
  {
    "file": "src/lib_mec/test/test_curve448.ml",
    "title": "Curve448: Group properties (zero_scalar_nullifier_one)",
    "tags": [
      "alcotezt",
      "quick"
    ],
    "successful_runs": {
      "total_time": "219",
      "count": "1"
    }
  },
  {
    "file": "src/lib_mec/test/test_curve25519_montgomery.ml",
    "title": "Curve25519: Group properties (check_bytes_zero)",
    "tags": [
      "alcotezt",
      "quick"
    ],
    "successful_runs": {
      "total_time": "165",
      "count": "1"
    }
  },
  {
    "file": "src/lib_mec/test/test_bn254_projective.ml",
    "title": "BN254 projective form: Group properties (check_bytes_random)",
    "tags": [
      "alcotezt",
      "quick"
    ],
    "successful_runs": {
      "total_time": "4589",
      "count": "1"
    }
  },
  {
    "file": "src/lib_mec/test/test_bn254_affine.ml",
    "title": "BN254 affine form: value generation (double generates a valid point)",
    "tags": [
      "alcotezt",
      "quick"
    ],
    "successful_runs": {
      "total_time": "5744",
      "count": "1"
    }
  },
  {
    "file": "src/lib_mec/test/test_bls12_381_projective.ml",
    "title": "BLS12-381 G1 projective form: Group properties (opposite_of_zero_is_zero)",
    "tags": [
      "alcotezt",
      "quick"
    ],
    "successful_runs": {
      "total_time": "176",
      "count": "1"
    }
  },
  {
    "file": "src/lib_mec/test/test_bls12_381_affine.ml",
    "title": "BLS12-381 G1 affine form: Group properties (check_bytes_random_multiplication)",
    "tags": [
      "alcotezt",
      "quick"
    ],
    "successful_runs": {
      "total_time": "993250",
      "count": "1"
    }
  },
  {
    "file": "src/lib_mec/test/test_bandersnatch_affine_weierstrass.ml",
    "title": "Bandersnatch Weierstrass form, affine coordinates: Group properties (check_bytes_one)",
    "tags": [
      "alcotezt",
      "quick"
    ],
    "successful_runs": {
      "total_time": "295",
      "count": "1"
    }
  },
  {
    "file": "src/lib_mec/test/test_bandersnatch_affine_edwards.ml",
    "title": "Bandersnatch Edwards form, affine coordinates: value generation (negate_with_one)",
    "tags": [
      "alcotezt",
      "quick"
    ],
    "successful_runs": {
      "total_time": "179",
      "count": "1"
    }
  },
  {
    "file": "src/lib_mec/test/test_babyjubjub_reduced.ml",
    "title": "BabyJubjub reduced twisted edwards form: Group properties (opposite_of_opposite_using_scalar)",
    "tags": [
      "alcotezt",
      "quick"
    ],
    "successful_runs": {
      "total_time": "20227",
      "count": "1"
    }
  },
  {
    "file": "src/lib_mec/test/test_babyjubjub.ml",
    "title": "BabyJubjub: Vectors (test random coordinates u, v do not give a point on the curve)",
    "tags": [
      "alcotezt",
      "quick"
    ],
    "successful_runs": {
      "total_time": "1523",
      "count": "1"
    }
  },
  {
    "file": "src/lib_lwt_result_stdlib/test/test_list_basic_lwt.ml",
    "title": "list-basic-lwt: concat_map_* (concat_map_s)",
    "tags": [
      "alcotezt",
      "quick"
    ],
    "successful_runs": {
      "total_time": "175",
      "count": "1"
    }
  },
  {
    "file": "src/lib_lazy_containers/test/chunked_byte_vector_tests.ml",
    "title": "Chunked_byte_vector: Chunked_byte_vector (Mutable CBV/Chunk: num_pages edge case)",
    "tags": [
      "alcotezt",
      "quick"
    ],
    "successful_runs": {
      "total_time": "192",
      "count": "1"
    }
  },
  {
    "file": "src/lib_hacl/test/test.ml",
    "title": "hacl-test: tests (Testing P256)",
    "tags": [
      "alcotezt",
      "quick"
    ],
    "successful_runs": {
      "total_time": "1479",
      "count": "1"
    }
  },
  {
    "file": "src/lib_error_monad/test/test_splitted_error_encoding.ml",
    "title": "splitted: splitted (unregistered(json))",
    "tags": [
      "alcotezt",
      "quick"
    ],
    "successful_runs": {
      "total_time": "3524",
      "count": "1"
    }
  },
  {
    "file": "src/lib_crypto/test/test_run.ml",
    "title": "tezos-crypto: timelock legacy (timelock legacy: high level scenario)",
    "tags": [
      "alcotezt",
      "quick"
    ],
    "successful_runs": {
      "total_time": "85391",
      "count": "1"
    }
  },
  {
    "file": "src/lib_context/test/test_context.ml",
    "title": "tezos-context: context (memory:replay)",
    "tags": [
      "alcotezt",
      "quick"
    ],
    "successful_runs": {
      "total_time": "799",
      "count": "1"
    }
  },
  {
    "file": "src/lib_clic/test/test_clic.ml",
    "title": "Tezos_clic: auto-completion-parameters (non-terminal-seq: when first non-terminal-seq and its suffix are matched and no arg given, suggests all options in the next seq and its suffix)",
    "tags": [
      "alcotezt",
      "quick"
    ],
    "successful_runs": {
      "total_time": "213",
      "count": "1"
    }
  },
  {
    "file": "src/lib_bls12_381_signature/test/test_signature.ml",
    "title": "BLS Signature: MinPk Auxiliary functions (signature_of_bytes_exn does check the input)",
    "tags": [
      "alcotezt",
      "quick"
    ],
    "successful_runs": {
      "total_time": "200",
      "count": "1"
    }
  },
  {
    "file": "src/lib_bls12_381_signature/test/test_signature.ml",
    "title": "BLS Signature: MinSig Auxiliary functions (signature_of_bytes_exn copies the input)",
    "tags": [
      "alcotezt",
      "quick"
    ],
    "successful_runs": {
      "total_time": "2628",
      "count": "1"
    }
  },
  {
    "file": "src/lib_bls12_381_polynomial/test/test_main.ml",
    "title": "PlonK: Polynomial_c (degree)",
    "tags": [
      "alcotezt",
      "quick"
    ],
    "successful_runs": {
      "total_time": "5029",
      "count": "1"
    }
  },
  {
    "file": "src/lib_bls12_381/test/test_gt.ml",
    "title": "GT: Group properties (additive_associativity_with_scalar)",
    "tags": [
      "alcotezt",
      "quick"
    ],
    "successful_runs": {
      "total_time": "405533",
      "count": "1"
    }
  },
  {
    "file": "src/lib_bls12_381/test/test_g2.ml",
    "title": "G2: Compressed representation (Compressed version is half the size)",
    "tags": [
      "alcotezt",
      "quick"
    ],
    "successful_runs": {
      "total_time": "1275",
      "count": "1"
    }
  },
  {
    "file": "src/lib_bls12_381/test/test_g1.ml",
    "title": "G1: Curve properties (double)",
    "tags": [
      "alcotezt",
      "quick"
    ],
    "successful_runs": {
      "total_time": "21250",
      "count": "1"
    }
  },
  {
    "file": "src/lib_bls12_381/test/test_fr.ml",
    "title": "Fr: Test comparison operators ((>) successor is greater)",
    "tags": [
      "alcotezt",
      "quick"
    ],
    "successful_runs": {
      "total_time": "183",
      "count": "1"
    }
  },
  {
    "file": "src/lib_bls12_381/test/test_fr.ml",
    "title": "Fr: Field properties for field of order 5243587517512619047944774050818596583769055250052763782260365869 (distributivity)",
    "tags": [
      "alcotezt",
      "quick"
    ],
    "successful_runs": {
      "total_time": "139",
      "count": "1"
    }
  },
  {
    "file": "src/lib_benchmark/test/test_costlang.ml",
    "title": "tezos-benchmark: costlang (arg_names_4)",
    "tags": [
      "alcotezt",
      "quick"
    ],
    "successful_runs": {
      "total_time": "138",
      "count": "1"
    }
  },
  {
    "file": "etherlink/tezt/tests/evm_rollup.ml",
    "title": "Alpha: Ensure validation returns appropriate address for a given transaction. (proxy)",
    "tags": [
      "admin_client",
      "alpha",
      "client",
      "evm",
      "evm_kernel",
      "evm_node",
      "node",
      "proxy",
      "simulate",
      "smart_rollup_installer",
      "smart_rollup_node"
    ],
    "successful_runs": {
      "total_time": "7299292",
      "count": "1"
    }
  },
  {
    "file": "tezt/tests/sc_rollup.ml",
    "title": "Alpha: wasm_2_0_0 - a late alternative rollup should catch up",
    "tags": [
      "admin_client",
      "alpha",
      "client",
      "etherlink",
      "gc",
      "late",
      "node",
      "sc_rollup",
      "smart_rollup_node",
      "wasm_2_0_0"
    ],
    "successful_runs": {
      "total_time": "89310592",
      "count": "1"
    }
  },
  {
    "file": "tezt/tests/riscv_sandbox.ml",
    "title": "Run riscv unit tests (si)",
    "tags": [
      "regression",
      "riscv_sandbox",
      "riscv",
      "sandbox",
      "si",
      "unit"
    ],
    "successful_runs": {
      "total_time": "105252",
      "count": "1"
    }
  },
  {
    "file": "tezt/tests/sc_rollup_migration.ml",
    "title": "Oxford->Alpha: arith - Refuting a commitment pre-migration when the game started pre-migration.",
    "tags": [
      "admin_client",
      "alpha",
      "arith",
      "client",
      "etherlink",
      "migration",
      "node",
      "oxford",
      "refutation"
    ],
    "successful_runs": {
      "total_time": "37469017",
      "count": "1"
    }
  },
  {
    "file": "tezt/tests/baker_operations_cli_options.ml",
    "title": "Nairobi: external operations, missing operations (empty) file",
    "tags": [
      "admin_client",
      "baker",
      "client",
      "empty",
      "external_operations",
      "file",
      "layer1",
      "nairobi",
      "node"
    ],
    "successful_runs": {
      "total_time": "4072957",
      "count": "1"
    }
  },
  {
    "file": "tezt/tests/baking.ml",
    "title": "Alpha: External operations are ordered (3 transfers, max 1 operations)",
    "tags": [
      "admin_client",
      "alpha",
      "baking",
      "client",
      "node",
      "operations_pool"
    ],
    "successful_runs": {
      "total_time": "10639652",
      "count": "1"
    }
  },
  {
    "file": "tezt/tests/bootstrap.ml",
    "title": "Alpha: node synchronization (full / archive)",
    "tags": [
      "activate",
      "admin_client",
      "alpha",
      "bake",
      "bootstrap",
      "client",
      "node",
      "primary_full",
      "secondary_archive",
      "sync"
    ],
    "successful_runs": {
      "total_time": "20441832",
      "count": "1"
    }
  },
  {
    "file": "tezt/tests/client_commands.ml",
    "title": "Nairobi: Injecting of failing operation with force",
    "tags": [
      "admin_client",
      "client",
      "failing",
      "force",
      "injection",
      "nairobi",
      "node"
    ],
    "successful_runs": {
      "total_time": "4045595",
      "count": "1"
    }
  },
  {
    "file": "tezt/tests/client_commands.ml",
    "title": "Alpha: Test client signatures and on chain check",
    "tags": [
      "admin_client",
      "alpha",
      "bls",
      "check",
      "client",
      "node",
      "signature"
    ],
    "successful_runs": {
      "total_time": "13720952",
      "count": "1"
    }
  },
  {
    "file": "tezt/tests/client_fa12.ml",
    "title": "Alpha: test fa1.2, check contract implements FA1.2 interface [mini_scenarios/lqt_fa12.mligo]",
    "tags": [
      "admin_client",
      "alpha",
      "client",
      "fa12",
      "lqt_fa12_mligo"
    ],
    "successful_runs": {
      "total_time": "2213171",
      "count": "1"
    }
  },
  {
    "file": "tezt/tests/client_fa12.ml",
    "title": "Oxford: test fa1.2, test incremental [mini_scenarios/lqt_fa12.mligo]",
    "tags": [
      "admin_client",
      "client",
      "fa12",
      "lqt_fa12_mligo",
      "oxford"
    ],
    "successful_runs": {
      "total_time": "15769260",
      "count": "1"
    }
  },
  {
    "file": "tezt/tests/consensus_key.ml",
    "title": "Nairobi: Test drain delegate with (baker <> delegate & consensus = destination)",
    "tags": [
      "regression",
      "admin_client",
      "client",
      "consensus_key",
      "nairobi",
      "node"
    ],
    "successful_runs": {
      "total_time": "14697000",
      "count": "1"
    }
  },
  {
    "file": "tezt/tests/contract_onchain_opcodes.ml",
    "title": "Nairobi: Contract onchain opcodes: test_self",
    "tags": [
      "regression",
      "admin_client",
      "client",
      "contract",
      "nairobi",
      "onchain",
      "opcodes"
    ],
    "successful_runs": {
      "total_time": "1795616",
      "count": "1"
    }
  },
  {
    "file": "tezt/tests/contract_onchain_opcodes.ml",
    "title": "Alpha: Contract onchain opcodes: test_slice",
    "tags": [
      "regression",
      "admin_client",
      "alpha",
      "client",
      "contract",
      "onchain",
      "opcodes"
    ],
    "successful_runs": {
      "total_time": "3811491",
      "count": "1"
    }
  },
  {
    "file": "tezt/tests/contract_onchain_opcodes.ml",
    "title": "Alpha: Contract onchain opcodes: ticket_join",
    "tags": [
      "admin_client",
      "alpha",
      "client",
      "contract",
      "onchain",
      "opcodes"
    ],
    "successful_runs": {
      "total_time": "3749383",
      "count": "1"
    }
  },
  {
    "file": "tezt/tests/contract_opcodes.ml",
    "title": "Oxford: opcodes [slice_bytes--storage229749865--input462551352]",
    "tags": [
      "regression",
      "admin_client",
      "client",
      "michelson",
      "oxford"
    ],
    "successful_runs": {
      "total_time": "479974",
      "count": "1"
    }
  },
  {
    "file": "tezt/tests/contract_opcodes.ml",
    "title": "Alpha: opcodes [pair_id--storage921624073--input908807505]",
    "tags": [
      "regression",
      "admin_client",
      "alpha",
      "client",
      "michelson"
    ],
    "successful_runs": {
      "total_time": "450646",
      "count": "1"
    }
  },
  {
    "file": "tezt/tests/contract_opcodes.ml",
    "title": "Oxford: opcodes [or_binary--storage921624073--input858098961]",
    "tags": [
      "regression",
      "admin_client",
      "client",
      "michelson",
      "oxford"
    ],
    "successful_runs": {
      "total_time": "533929",
      "count": "1"
    }
  },
  {
    "file": "tezt/tests/contract_opcodes.ml",
    "title": "Nairobi: opcodes [xor--storage921624073--input576248088]",
    "tags": [
      "regression",
      "admin_client",
      "client",
      "michelson",
      "nairobi"
    ],
    "successful_runs": {
      "total_time": "448604",
      "count": "1"
    }
  },
  {
    "file": "tezt/tests/contract_opcodes.ml",
    "title": "Alpha: opcodes [map_id--storage457300675--input1027566226]",
    "tags": [
      "regression",
      "admin_client",
      "alpha",
      "client",
      "michelson"
    ],
    "successful_runs": {
      "total_time": "456182",
      "count": "1"
    }
  },
  {
    "file": "tezt/tests/contract_opcodes.ml",
    "title": "Nairobi: opcodes [map_mem_string--storage109689253--input700475845]",
    "tags": [
      "regression",
      "admin_client",
      "client",
      "michelson",
      "nairobi"
    ],
    "successful_runs": {
      "total_time": "388396",
      "count": "1"
    }
  },
  {
    "file": "tezt/tests/contract_opcodes.ml",
    "title": "Nairobi: opcodes [big_map_mem_nat--storage56274299--input564400327]",
    "tags": [
      "regression",
      "admin_client",
      "client",
      "michelson",
      "nairobi"
    ],
    "successful_runs": {
      "total_time": "448696",
      "count": "1"
    }
  },
  {
    "file": "tezt/tests/contract_opcodes.ml",
    "title": "Oxford: opcodes [list_size--storage492856247--input457300675]",
    "tags": [
      "regression",
      "admin_client",
      "client",
      "michelson",
      "oxford"
    ],
    "successful_runs": {
      "total_time": "485791",
      "count": "1"
    }
  },
  {
    "file": "tezt/tests/contract_opcodes.ml",
    "title": "Nairobi: opcodes [get_and_update_map--storage796012494--input156280093]",
    "tags": [
      "regression",
      "admin_client",
      "client",
      "michelson",
      "nairobi"
    ],
    "successful_runs": {
      "total_time": "472513",
      "count": "1"
    }
  },
  {
    "file": "tezt/tests/contract_opcodes.ml",
    "title": "Nairobi: opcodes [set_car--storage224747103--input717096222]",
    "tags": [
      "regression",
      "admin_client",
      "client",
      "michelson",
      "nairobi"
    ],
    "successful_runs": {
      "total_time": "464444",
      "count": "1"
    }
  },
  {
    "file": "tezt/tests/contract_opcodes.ml",
    "title": "Alpha: opcodes [add_delta_timestamp--storage921624073--input267363182]",
    "tags": [
      "regression",
      "admin_client",
      "alpha",
      "client",
      "michelson"
    ],
    "successful_runs": {
      "total_time": "408179",
      "count": "1"
    }
  },
  {
    "file": "tezt/tests/contract_opcodes.ml",
    "title": "Alpha: opcodes [sub_timestamp_delta--storage492856247--input831449542]",
    "tags": [
      "regression",
      "admin_client",
      "alpha",
      "client",
      "michelson"
    ],
    "successful_runs": {
      "total_time": "431129",
      "count": "1"
    }
  },
  {
    "file": "tezt/tests/contract_opcodes.ml",
    "title": "Alpha: opcodes [ediv_mutez--storage977883604--input215785357]",
    "tags": [
      "regression",
      "admin_client",
      "alpha",
      "client",
      "michelson"
    ],
    "successful_runs": {
      "total_time": "385226",
      "count": "1"
    }
  },
  {
    "file": "tezt/tests/contract_opcodes.ml",
    "title": "Nairobi: opcodes [comb--storage950292965--input125992234]",
    "tags": [
      "regression",
      "admin_client",
      "client",
      "michelson",
      "nairobi"
    ],
    "successful_runs": {
      "total_time": "411201",
      "count": "1"
    }
  },
  {
    "file": "tezt/tests/contract_opcodes.ml",
    "title": "Oxford: opcodes [dup-n--storage125992234--input125992234]",
    "tags": [
      "regression",
      "admin_client",
      "client",
      "michelson",
      "oxford"
    ],
    "successful_runs": {
      "total_time": "388878",
      "count": "1"
    }
  },
  {
    "file": "tezt/tests/contract_opcodes.ml",
    "title": "Alpha: opcodes [bls12_381_fr_z_nat--storage698210250--input949526473]",
    "tags": [
      "regression",
      "admin_client",
      "alpha",
      "client",
      "michelson"
    ],
    "successful_runs": {
      "total_time": "399108",
      "count": "1"
    }
  },
  {
    "file": "tezt/tests/contract_opcodes.ml",
    "title": "Oxford: opcodes [bls12_381_z_fr_int--storage739946440--input583291483]",
    "tags": [
      "regression",
      "admin_client",
      "client",
      "michelson",
      "oxford"
    ],
    "successful_runs": {
      "total_time": "419334",
      "count": "1"
    }
  },
  {
    "file": "tezt/tests/contract_opcodes.ml",
    "title": "Alpha: opcodes [bls12_381_z_fr_int--storage994282947--input585234482]",
    "tags": [
      "regression",
      "admin_client",
      "alpha",
      "client",
      "michelson"
    ],
    "successful_runs": {
      "total_time": "512166",
      "count": "1"
    }
  },
  {
    "file": "tezt/tests/contract_opcodes.ml",
    "title": "Oxford: opcodes [add_bls12_381_fr--storage921624073--input530006774]",
    "tags": [
      "regression",
      "admin_client",
      "client",
      "michelson",
      "oxford"
    ],
    "successful_runs": {
      "total_time": "473701",
      "count": "1"
    }
  },
  {
    "file": "tezt/tests/contract_typecheck_contract.ml",
    "title": "Oxford: Test Implicit",
    "tags": [
      "admin_client",
      "client",
      "contract",
      "michelson",
      "oxford",
      "typechecking"
    ],
    "successful_runs": {
      "total_time": "12490103",
      "count": "1"
    }
  },
  {
    "file": "tezt/tests/contract_macros.ml",
    "title": "Nairobi: macros [compare--storage457300675--input588371073]",
    "tags": [
      "admin_client",
      "client",
      "macros",
      "michelson",
      "nairobi"
    ],
    "successful_runs": {
      "total_time": "465841",
      "count": "1"
    }
  },
  {
    "file": "tezt/tests/contract_macros.ml",
    "title": "Oxford: macro failure [assert_lt--storage125992234--input694127922]",
    "tags": [
      "admin_client",
      "client",
      "macros",
      "michelson",
      "oxford"
    ],
    "successful_runs": {
      "total_time": "499248",
      "count": "1"
    }
  },
  {
    "file": "tezt/tests/contract_macros.ml",
    "title": "Alpha: macro failure [assert_cmpge--storage125992234--input280547028]",
    "tags": [
      "admin_client",
      "alpha",
      "client",
      "macros",
      "michelson"
    ],
    "successful_runs": {
      "total_time": "463809",
      "count": "1"
    }
  },
  {
    "file": "tezt/tests/contract_macros.ml",
    "title": "Oxford: Macro expansion: macros/assert_cmpneq",
    "tags": [
      "regression",
      "admin_client",
      "client",
      "macros",
      "michelson",
      "oxford"
    ],
    "successful_runs": {
      "total_time": "453576",
      "count": "1"
    }
  },
  {
    "file": "tezt/tests/contract_bootstrap.ml",
    "title": "Alpha: Bootstrap contract with given hash",
    "tags": [
      "admin_client",
      "alpha",
      "bootstrap",
      "client",
      "contract",
      "michelson",
      "node"
    ],
    "successful_runs": {
      "total_time": "3175145",
      "count": "1"
    }
  },
  {
    "file": "tezt/tests/gas_bound.ml",
    "title": "Nairobi: typecheck map bad ordering",
    "tags": [
      "admin_client",
      "client",
      "gas_bound",
      "michelson",
      "nairobi"
    ],
    "successful_runs": {
      "total_time": "837897",
      "count": "1"
    }
  },
  {
    "file": "tezt/tests/light.ml",
    "title": "Nairobi: (Light) No useless RPC call",
    "tags": [
      "admin_client",
      "client",
      "get",
      "layer1",
      "light",
      "nairobi",
      "node",
      "rpc"
    ],
    "successful_runs": {
      "total_time": "10995756",
      "count": "1"
    }
  },
  {
    "file": "tezt/tests/manager_operations.ml",
    "title": "Alpha: Correct public key revealed twice in a batch",
    "tags": [
      "admin_client",
      "alpha",
      "batch",
      "client",
      "codec",
      "node",
      "reveal",
      "revelation"
    ],
    "successful_runs": {
      "total_time": "10934934",
      "count": "1"
    }
  },
  {
    "file": "tezt/tests/mockup.ml",
    "title": "Oxford: (Mockup) Register Global Constant success",
    "tags": [
      "admin_client",
      "client",
      "global_constant",
      "mockup",
      "oxford"
    ],
    "successful_runs": {
      "total_time": "864681",
      "count": "1"
    }
  },
  {
    "file": "tezt/tests/multisig.ml",
    "title": "Nairobi: Multisig [by_address:true, generic, sig_algs:p256,ed25519,None]",
    "tags": [
      "admin_client",
      "by_address",
      "client",
      "generic",
      "multisig",
      "nairobi"
    ],
    "successful_runs": {
      "total_time": "34554041",
      "count": "1"
    }
  },
  {
    "file": "tezt/tests/prevalidator.ml",
    "title": "Alpha: Forge pre-filtered operation and check mempool",
    "tags": [
      "admin_client",
      "alpha",
      "client",
      "forge",
      "mempool",
      "node",
      "pre_filtered"
    ],
    "successful_runs": {
      "total_time": "7422455",
      "count": "1"
    }
  },
  {
    "file": "tezt/tests/protocol_limits.ml",
    "title": "Oxford: protocol limits",
    "tags": [
      "admin_client",
      "client",
      "limits",
      "mockup",
      "oxford",
      "protocol"
    ],
    "successful_runs": {
      "total_time": "3163706",
      "count": "1"
    }
  },
  {
    "file": "tezt/tests/proxy.ml",
    "title": "Alpha: (Proxy) (/chains/main/blocks/head/context/contracts) No useless RPC call",
    "tags": [
      "admin_client",
      "alpha",
      "client",
      "get",
      "layer1",
      "node",
      "proxy",
      "rpc"
    ],
    "successful_runs": {
      "total_time": "4450890",
      "count": "1"
    }
  },
  {
    "file": "tezt/tests/proxy.ml",
    "title": "Nairobi: (Proxy) (/chains/main/blocks/head/helpers/baking_rights?all=true) Cache at most once",
    "tags": [
      "admin_client",
      "client",
      "get",
      "layer1",
      "nairobi",
      "node",
      "proxy",
      "rpc"
    ],
    "successful_runs": {
      "total_time": "4515456",
      "count": "1"
    }
  },
  {
    "file": "tezt/tests/proxy_server_test.ml",
    "title": "Oxford: big_map_perf (proxy_server)",
    "tags": [
      "admin_client",
      "bigmapperf",
      "client",
      "node",
      "oxford",
      "proxy_server"
    ],
    "successful_runs": {
      "total_time": "12317029",
      "count": "1"
    }
  },
  {
    "file": "tezt/tests/RPC_test.ml",
    "title": "Oxford: (mode client) RPC regression tests: votes",
    "tags": [
      "regression",
      "admin_client",
      "client",
      "node",
      "oxford",
      "rpc",
      "votes"
    ],
    "successful_runs": {
      "total_time": "16807307",
      "count": "1"
    }
  },
  {
    "file": "tezt/tests/RPC_test.ml",
    "title": "Nairobi: (mode proxy_server_data_dir) RPC regression tests: contracts",
    "tags": [
      "regression",
      "admin_client",
      "client",
      "contracts",
      "nairobi",
      "node",
      "proxy_server",
      "proxy_server_data_dir",
      "rpc"
    ],
    "successful_runs": {
      "total_time": "34117542",
      "count": "1"
    }
  },
  {
    "file": "tezt/tests/rpc_versioning_attestation.ml",
    "title": "Oxford: Parse raw double pre-consensus evidence operations",
    "tags": [
      "admin_client",
      "client",
      "codec",
      "consensus",
      "double",
      "evidence",
      "layer1",
      "node",
      "operations",
      "oxford",
      "parse",
      "pre",
      "raw",
      "rpc",
      "versioning"
    ],
    "successful_runs": {
      "total_time": "11217379",
      "count": "1"
    }
  },
  {
    "file": "tezt/tests/rpc_versioning_attestation.ml",
    "title": "Alpha: Pending double consensus evidence operations",
    "tags": [
      "admin_client",
      "alpha",
      "client",
      "consensus",
      "double",
      "evidence",
      "layer1",
      "mempool",
      "node",
      "operations",
      "pending",
      "rpc",
      "versioning"
    ],
    "successful_runs": {
      "total_time": "11550246",
      "count": "1"
    }
  },
  {
    "file": "tezt/tests/run_operation_RPC.ml",
    "title": "Oxford: Run_operation correct batch",
    "tags": [
      "admin_client",
      "batch",
      "client",
      "correct_batch",
      "delegation",
      "manager",
      "node",
      "oxford",
      "rpc",
      "run_operation",
      "transaction"
    ],
    "successful_runs": {
      "total_time": "4744977",
      "count": "1"
    }
  },
  {
    "file": "tezt/tests/sapling.ml",
    "title": "Nairobi: successful_roundtrip",
    "tags": [
      "admin_client",
      "client",
      "nairobi",
      "node",
      "sapling"
    ],
    "successful_runs": {
      "total_time": "27158012",
      "count": "1"
    }
  },
  {
    "file": "tezt/tests/script_illtyped.ml",
    "title": "Oxford: Test Deprecated Typecheck Breaks - legacy/create_contract",
    "tags": [
      "admin_client",
      "client",
      "michelson",
      "oxford",
      "script",
      "typechecking"
    ],
    "successful_runs": {
      "total_time": "1081974",
      "count": "1"
    }
  },
  {
    "file": "tezt/tests/script_illtyped.ml",
    "title": "Alpha: Test Ill Typecheck - stack_bottom_unpopable_in_lambda",
    "tags": [
      "admin_client",
      "alpha",
      "client",
      "michelson",
      "script",
      "typechecking"
    ],
    "successful_runs": {
      "total_time": "968879",
      "count": "1"
    }
  },
  {
    "file": "tezt/tests/script_illtyped.ml",
    "title": "Alpha: Test Ill Typecheck - never_literal",
    "tags": [
      "admin_client",
      "alpha",
      "client",
      "michelson",
      "script",
      "typechecking"
    ],
    "successful_runs": {
      "total_time": "1067944",
      "count": "1"
    }
  },
  {
    "file": "tezt/tests/script_illtyped.ml",
    "title": "Nairobi: Test Ill Typecheck - dip_failwith",
    "tags": [
      "admin_client",
      "client",
      "michelson",
      "nairobi",
      "script",
      "typechecking"
    ],
    "successful_runs": {
      "total_time": "1108123",
      "count": "1"
    }
  },
  {
    "file": "tezt/tests/sc_rollup.ml",
    "title": "Alpha: arith - rollup with a commitment dispute (valid dispute dissection)",
    "tags": [
      "admin_client",
      "alpha",
      "arith",
      "client",
      "commitment",
      "etherlink",
      "game",
      "node",
      "refutation",
      "sc_rollup"
    ],
    "successful_runs": {
      "total_time": "41954442",
      "count": "1"
    }
  },
  {
    "file": "tezt/tests/sc_rollup.ml",
    "title": "Nairobi: arith - refutation games winning strategies (pvm_proof_0)",
    "tags": [
      "regression",
      "admin_client",
      "arith",
      "client",
      "etherlink",
      "nairobi",
      "node",
      "refutation",
      "sc_rollup",
      "smart_rollup_node"
    ],
    "successful_runs": {
      "total_time": "29722892",
      "count": "1"
    }
  },
  {
    "file": "tezt/tests/sc_rollup.ml",
    "title": "Oxford: wasm_2_0_0 - refutation games winning strategies (pvm_proof_0)",
    "tags": [
      "regression",
      "admin_client",
      "client",
      "etherlink",
      "node",
      "oxford",
      "refutation",
      "sc_rollup",
      "smart_rollup_node",
      "wasm_2_0_0"
    ],
    "successful_runs": {
      "total_time": "38673983",
      "count": "1"
    }
  },
  {
    "file": "tezt/tests/sc_rollup.ml",
    "title": "Oxford: arith - boot sector is evaluated",
    "tags": [
      "regression",
      "admin_client",
      "arith",
      "boot_sector",
      "client",
      "etherlink",
      "node",
      "oxford",
      "sc_rollup"
    ],
    "successful_runs": {
      "total_time": "6246406",
      "count": "1"
    }
  },
  {
    "file": "tezt/tests/sc_rollup.ml",
    "title": "Alpha: wasm_2_0_0 - rollup node - correct handling of commitments (handles_chain_reorgs_missing_blocks)",
    "tags": [
      "admin_client",
      "alpha",
      "client",
      "commitment",
      "etherlink",
      "node",
      "sc_rollup",
      "smart_rollup_node",
      "wasm_2_0_0"
    ],
    "successful_runs": {
      "total_time": "56470664",
      "count": "1"
    }
  },
  {
    "file": "tezt/tests/test_contract_bls12_381.ml",
    "title": "Oxford: Bls12_381 contract primitives, fr: add",
    "tags": [
      "regression",
      "add",
      "admin_client",
      "bls12_381",
      "client",
      "contract",
      "crypto",
      "fr",
      "michelson",
      "oxford"
    ],
    "successful_runs": {
      "total_time": "63597438",
      "count": "1"
    }
  },
  {
    "file": "tezt/tests/tickets.ml",
    "title": "Nairobi: Send tickets from contracts to implicit accounts with some Tez along",
    "tags": [
      "regression",
      "admin_client",
      "client",
      "michelson",
      "nairobi"
    ],
    "successful_runs": {
      "total_time": "2557106",
      "count": "1"
    }
  },
  {
    "file": "tezt/tests/tickets.ml",
    "title": "Alpha: Send Pair tickets from implicit account to originated directly",
    "tags": [
      "regression",
      "admin_client",
      "alpha",
      "client",
      "implicit",
      "michelson",
      "node",
      "originated",
      "ticket"
    ],
    "successful_runs": {
      "total_time": "7607973",
      "count": "1"
    }
  },
  {
    "file": "tezt/tests/dac.ml",
    "title": "Oxford: Testing Full DAC infrastructure (committee members and observers download pages from coordinator)",
    "tags": [
      "admin_client",
      "client",
      "dac",
      "dac_node",
      "node",
      "oxford",
      "smart_rollup_node"
    ],
    "successful_runs": {
      "total_time": "6559115",
      "count": "1"
    }
  },
  {
    "file": "tezt/tests/dac.ml",
    "title": "Nairobi: Testing Full DAC infrastructure (test serialized certificate)",
    "tags": [
      "admin_client",
      "client",
      "dac",
      "dac_client",
      "dac_node",
      "nairobi",
      "node",
      "smart_rollup_node"
    ],
    "successful_runs": {
      "total_time": "8850780",
      "count": "1"
    }
  },
  {
    "file": "tezt/tests/dac.ml",
    "title": "Alpha: Testing Full DAC infrastructure (test GET v0/missing_page)",
    "tags": [
      "regression",
      "admin_client",
      "alpha",
      "api_regression",
      "client",
      "dac",
      "dac_node",
      "node",
      "smart_rollup_node"
    ],
    "successful_runs": {
      "total_time": "11079874",
      "count": "1"
    }
  },
  {
    "file": "tezt/tests/timelock.ml",
    "title": "Oxford: Correct guess test on timelock",
    "tags": [
      "admin_client",
      "client",
      "michelson",
      "oxford",
      "timelock"
    ],
    "successful_runs": {
      "total_time": "7411114",
      "count": "1"
    }
  }
]