[
  {
    "file": "tezt/self_tests/test_michelson_script.ml",
    "title": "michelson_scripts: version_range2",
    "tags": [
      "michelson_scripts",
      "version_range"
    ],
    "successful_runs": {
      "total_time": "18589",
      "count": "1"
    }
  },
  {
    "file": "src/riscv/pvm/test/test_main.ml",
    "title": "RISC-V interpreter: Main (add)",
    "tags": [
      "alcotezt",
      "quick"
    ],
    "successful_runs": {
      "total_time": "482",
      "count": "1"
    }
  },
  {
    "file": "src/proto_alpha/lib_protocol/test/unit/test_zk_rollup_storage.ml",
    "title": "alpha: zk rollup storage (pending_list_get errors)",
    "tags": [
      "alcotezt",
      "quick",
      "alpha"
    ],
    "successful_runs": {
      "total_time": "1037072",
      "count": "1"
    }
  },
  {
    "file": "src/proto_alpha/lib_protocol/test/unit/test_time_repr.ml",
    "title": "alpha: time (overflowing addition)",
    "tags": [
      "alcotezt",
      "quick",
      "alpha"
    ],
    "successful_runs": {
      "total_time": "266",
      "count": "1"
    }
  },
  {
    "file": "src/proto_alpha/lib_protocol/test/unit/test_tez_repr.ml",
    "title": "alpha: Tez_repr.ml (Tez.add: basic behaviour (one + zero))",
    "tags": [
      "alcotezt",
      "quick",
      "alpha"
    ],
    "successful_runs": {
      "total_time": "195",
      "count": "1"
    }
  },
  {
    "file": "src/proto_alpha/lib_protocol/test/unit/test_sc_rollup_storage.ml",
    "title": "alpha: sc rollup storage (fresh index is correcly incremented)",
    "tags": [
      "alcotezt",
      "quick",
      "alpha"
    ],
    "successful_runs": {
      "total_time": "19562",
      "count": "1"
    }
  },
  {
    "file": "src/proto_alpha/lib_protocol/test/unit/test_sc_rollup_arith.ml",
    "title": "alpha: sc rollup arith (PreBoot)",
    "tags": [
      "alcotezt",
      "quick",
      "alpha"
    ],
    "successful_runs": {
      "total_time": "329",
      "count": "1"
    }
  },
  {
    "file": "src/proto_alpha/lib_protocol/test/unit/test_saturation.ml",
    "title": "alpha: saturation arithmetic (Scale fast)",
    "tags": [
      "alcotezt",
      "quick",
      "alpha"
    ],
    "successful_runs": {
      "total_time": "164",
      "count": "1"
    }
  },
  {
    "file": "src/proto_alpha/lib_protocol/test/unit/test_adaptive_issuance_ema.ml",
    "title": "alpha: adaptive issuance ema (EMA remains in bounds when vote is Off)",
    "tags": [
      "alcotezt",
      "quick",
      "alpha"
    ],
    "successful_runs": {
      "total_time": "216",
      "count": "1"
    }
  },
  {
    "file": "src/proto_alpha/lib_protocol/test/regression/test_logging.ml",
    "title": "alpha: insertion_sort",
    "tags": [
      "regression",
      "protocol",
      "regression",
      "logging"
    ],
    "successful_runs": {
      "total_time": "124045",
      "count": "1"
    }
  },
  {
    "file": "src/proto_alpha/lib_protocol/test/regression/test_logging.ml",
    "title": "alpha: view_fib",
    "tags": [
      "regression",
      "protocol",
      "regression",
      "logging"
    ],
    "successful_runs": {
      "total_time": "25027",
      "count": "1"
    }
  },
  {
    "file": "src/proto_alpha/lib_protocol/test/integration/validate/test_validation_batch.ml",
    "title": "alpha: batched managers validation (batch incons. counters)",
    "tags": [
      "alcotezt",
      "quick",
      "alpha"
    ],
    "successful_runs": {
      "total_time": "11731739",
      "count": "1"
    }
  },
  {
    "file": "src/proto_alpha/lib_protocol/test/integration/validate/test_mempool.ml",
    "title": "alpha: mempool (remove operations)",
    "tags": [
      "alcotezt",
      "quick",
      "alpha"
    ],
    "successful_runs": {
      "total_time": "12917",
      "count": "1"
    }
  },
  {
    "file": "src/proto_alpha/lib_protocol/test/integration/michelson/test_ticket_lazy_storage_diff.ml",
    "title": "alpha: ticket lazy storage diff (update and remove same key multiple times on existing big-map)",
    "tags": [
      "alcotezt",
      "quick",
      "alpha"
    ],
    "successful_runs": {
      "total_time": "10874",
      "count": "1"
    }
  },
  {
    "file": "src/proto_alpha/lib_protocol/test/integration/michelson/test_ticket_accounting.ml",
    "title": "alpha: ticket accounting (Diffs for tickets in args and storage)",
    "tags": [
      "alcotezt",
      "quick",
      "alpha"
    ],
    "successful_runs": {
      "total_time": "9875",
      "count": "1"
    }
  },
  {
    "file": "src/proto_alpha/lib_protocol/test/integration/consensus/test_seed.ml",
    "title": "alpha: seed (seed computation (no commitment))",
    "tags": [
      "alcotezt",
      "quick",
      "alpha"
    ],
    "successful_runs": {
      "total_time": "136257",
      "count": "1"
    }
  },
  {
    "file": "src/proto_alpha/lib_protocol/test/integration/consensus/test_preattestation.ml",
    "title": "alpha: preattestation (Preattestation for next round)",
    "tags": [
      "alcotezt",
      "quick",
      "alpha"
    ],
    "successful_runs": {
      "total_time": "16599",
      "count": "1"
    }
  },
  {
    "file": "src/proto_alpha/lib_protocol/test/integration/consensus/test_double_attestation.ml",
    "title": "alpha: double attestation (different delegates)",
    "tags": [
      "alcotezt",
      "quick",
      "alpha"
    ],
    "successful_runs": {
      "total_time": "13632",
      "count": "1"
    }
  },
  {
    "file": "src/proto_alpha/lib_protocol/test/integration/consensus/test_deactivation.ml",
    "title": "alpha: deactivation (simple staking rights)",
    "tags": [
      "alcotezt",
      "quick",
      "alpha"
    ],
    "successful_runs": {
      "total_time": "5887",
      "count": "1"
    }
  },
  {
    "file": "src/proto_alpha/lib_protocol/test/integration/test_frozen_bonds.ml",
    "title": "alpha: frozen bonds (frozen bonds - delegate then freeze)",
    "tags": [
      "alcotezt",
      "quick",
      "alpha"
    ],
    "successful_runs": {
      "total_time": "5287",
      "count": "1"
    }
  },
  {
    "file": "src/proto_alpha/lib_protocol/test/integration/test_adaptive_issuance_roundtrip.ml",
    "title": "alpha: adaptive issuance roundtrip (Test simple slashing: ns_enable = true, No AI, double baking, denounce same cycle)",
    "tags": [
      "alcotezt",
      "quick",
      "alpha"
    ],
    "successful_runs": {
      "total_time": "68319",
      "count": "1"
    }
  },
  {
    "file": "src/proto_alpha/lib_protocol/test/integration/test_adaptive_issuance_roundtrip.ml",
    "title": "alpha: adaptive issuance roundtrip (Test simple slashing: ns_enable = false, No AI, double attesting, denounce same cycle, another slash, double preattesting)",
    "tags": [
      "alcotezt",
      "quick",
      "alpha"
    ],
    "successful_runs": {
      "total_time": "74162",
      "count": "1"
    }
  },
  {
    "file": "src/proto_alpha/lib_protocol/test/integration/test_adaptive_issuance_roundtrip.ml",
    "title": "alpha: adaptive issuance roundtrip (Test slash timing: ns_enable = false, unstake, without another slash, 4 cycles lag)",
    "tags": [
      "alcotezt",
      "quick",
      "alpha"
    ],
    "successful_runs": {
      "total_time": "103610",
      "count": "1"
    }
  },
  {
    "file": "src/proto_alpha/lib_protocol/test/integration/test_adaptive_issuance_roundtrip.ml",
    "title": "alpha: adaptive issuance roundtrip (Test stake from unstake deactivated when slashed: wait 1 cycles)",
    "tags": [
      "alcotezt",
      "quick",
      "alpha"
    ],
    "successful_runs": {
      "total_time": "173257",
      "count": "1"
    }
  },
  {
    "file": "src/proto_alpha/lib_client/test/test_michelson_v1_macros.ml",
    "title": "alpha: micheline v1 macros (pappaiir expansion)",
    "tags": [
      "alcotezt",
      "quick",
      "alpha"
    ],
    "successful_runs": {
      "total_time": "226",
      "count": "1"
    }
  },
  {
    "file": "src/proto_018_Proxford/lib_protocol/test/unit/test_sc_rollup_storage.ml",
    "title": "018-Proxford: sc rollup storage (Unrelated commitments are classified as such)",
    "tags": [
      "alcotezt",
      "quick",
      "oxford"
    ],
    "successful_runs": {
      "total_time": "10761",
      "count": "1"
    }
  },
  {
    "file": "src/proto_018_Proxford/lib_protocol/test/unit/test_round_repr.ml",
    "title": "018-Proxford: round (round_of_ts (ts_of_round r) = r)",
    "tags": [
      "alcotezt",
      "quick",
      "oxford"
    ],
    "successful_runs": {
      "total_time": "440",
      "count": "1"
    }
  },
  {
    "file": "src/proto_018_Proxford/lib_protocol/test/unit/test_liquidity_baking_repr.ml",
    "title": "018-Proxford: liquidity baking (EMA does not decrease too much when vote is On)",
    "tags": [
      "alcotezt",
      "quick",
      "oxford"
    ],
    "successful_runs": {
      "total_time": "220",
      "count": "1"
    }
  },
  {
    "file": "src/proto_018_Proxford/lib_protocol/test/unit/test_bond_id_repr.ml",
    "title": "018-Proxford: Bond_id_repr.ml (Deserializing sc bond ids succeeds only when id is valid)",
    "tags": [
      "alcotezt",
      "quick",
      "oxford"
    ],
    "successful_runs": {
      "total_time": "169",
      "count": "1"
    }
  },
  {
    "file": "src/proto_018_Proxford/lib_protocol/test/integration/validate/test_validation_batch.ml",
    "title": "018-Proxford: batched managers validation (empty balance in middle of batch)",
    "tags": [
      "alcotezt",
      "quick",
      "oxford"
    ],
    "successful_runs": {
      "total_time": "10442708",
      "count": "1"
    }
  },
  {
    "file": "src/proto_018_Proxford/lib_protocol/test/integration/operations/test_zk_rollup.ml",
    "title": "018-Proxford: zk rollup (check feature flag is disabled)",
    "tags": [
      "alcotezt",
      "quick",
      "oxford"
    ],
    "successful_runs": {
      "total_time": "1026176",
      "count": "1"
    }
  },
  {
    "file": "src/proto_018_Proxford/lib_protocol/test/integration/operations/test_transfer_ticket.ml",
    "title": "018-Proxford: transfer ticket ('contract (ticket cty)' as transfer destination)",
    "tags": [
      "alcotezt",
      "quick",
      "oxford"
    ],
    "successful_runs": {
      "total_time": "19661",
      "count": "1"
    }
  },
  {
    "file": "src/proto_018_Proxford/lib_protocol/test/integration/operations/test_sc_rollup.ml",
    "title": "018-Proxford: sc rollup (check the challenge window period boundaries)",
    "tags": [
      "alcotezt",
      "quick",
      "oxford"
    ],
    "successful_runs": {
      "total_time": "39119",
      "count": "1"
    }
  },
  {
    "file": "src/proto_018_Proxford/lib_protocol/test/integration/operations/test_sc_rollup_transfer.ml",
    "title": "018-Proxford: sc rollup transfer (Transfer with a wrong type)",
    "tags": [
      "alcotezt",
      "quick",
      "oxford"
    ],
    "successful_runs": {
      "total_time": "11528",
      "count": "1"
    }
  },
  {
    "file": "src/proto_018_Proxford/lib_protocol/test/integration/operations/test_paid_storage_increase.ml",
    "title": "018-Proxford: paid storage increase (balances simple)",
    "tags": [
      "alcotezt",
      "quick",
      "oxford"
    ],
    "successful_runs": {
      "total_time": "9213",
      "count": "1"
    }
  },
  {
    "file": "src/proto_018_Proxford/lib_protocol/test/integration/michelson/test_ticket_scanner.ml",
    "title": "018-Proxford: ticket scanner (tickets in non-empty big-map ref)",
    "tags": [
      "alcotezt",
      "quick",
      "oxford"
    ],
    "successful_runs": {
      "total_time": "10012",
      "count": "1"
    }
  },
  {
    "file": "src/proto_018_Proxford/lib_protocol/test/integration/michelson/test_ticket_balance_key.ml",
    "title": "018-Proxford: ticket balance key (different ticketers)",
    "tags": [
      "alcotezt",
      "quick",
      "oxford"
    ],
    "successful_runs": {
      "total_time": "7652",
      "count": "1"
    }
  },
  {
    "file": "src/proto_018_Proxford/lib_protocol/test/integration/michelson/test_temp_big_maps.ml",
    "title": "018-Proxford: temp big maps (temp_big_maps(Left False, -1))",
    "tags": [
      "alcotezt",
      "quick",
      "oxford"
    ],
    "successful_runs": {
      "total_time": "13879",
      "count": "1"
    }
  },
  {
    "file": "src/proto_018_Proxford/lib_protocol/test/integration/consensus/test_frozen_deposits.ml",
    "title": "018-Proxford: frozen deposits (test simulation of limited staking with overdelegation)",
    "tags": [
      "alcotezt",
      "quick",
      "oxford"
    ],
    "successful_runs": {
      "total_time": "94929",
      "count": "1"
    }
  },
  {
    "file": "src/proto_018_Proxford/lib_protocol/test/integration/consensus/test_double_baking.ml",
    "title": "018-Proxford: double baking (incorrect order)",
    "tags": [
      "alcotezt",
      "quick",
      "oxford"
    ],
    "successful_runs": {
      "total_time": "15689",
      "count": "1"
    }
  },
  {
    "file": "src/proto_018_Proxford/lib_protocol/test/integration/consensus/test_delegation.ml",
    "title": "018-Proxford: delegation (contracts not registered as delegate can change their delegation (max fee))",
    "tags": [
      "alcotezt",
      "quick",
      "oxford"
    ],
    "successful_runs": {
      "total_time": "12621",
      "count": "1"
    }
  },
  {
    "file": "src/proto_018_Proxford/lib_protocol/test/integration/test_adaptive_issuance_roundtrip.ml",
    "title": "018-Proxford: adaptive issuance roundtrip (Test double roundtrip: AI activated, self stake, wait after stake, half then half unstake)",
    "tags": [
      "alcotezt",
      "quick",
      "oxford"
    ],
    "successful_runs": {
      "total_time": "432430",
      "count": "1"
    }
  },
  {
    "file": "src/proto_018_Proxford/lib_protocol/test/integration/test_adaptive_issuance_roundtrip.ml",
    "title": "018-Proxford: adaptive issuance roundtrip (Test simple slashing: Yes AI, double attesting, denounce same cycle)",
    "tags": [
      "alcotezt",
      "quick",
      "oxford"
    ],
    "successful_runs": {
      "total_time": "209739",
      "count": "1"
    }
  },
  {
    "file": "src/proto_018_Proxford/lib_protocol/test/integration/test_adaptive_issuance_roundtrip.ml",
    "title": "018-Proxford: adaptive issuance roundtrip (Test slashes with simple varying stake: slashes with increasing stake, denounce late)",
    "tags": [
      "alcotezt",
      "quick",
      "oxford"
    ],
    "successful_runs": {
      "total_time": "281294",
      "count": "1"
    }
  },
  {
    "file": "src/proto_018_Proxford/lib_dac_plugin/test/test_dac_pages_encoding.ml",
    "title": "018-Proxford: [Unit] Dac_pages_encoding.ml (Contents fitting in one page can be retrieved after being saved (Merkle tree, v0))",
    "tags": [
      "alcotezt",
      "quick",
      "oxford"
    ],
    "successful_runs": {
      "total_time": "191",
      "count": "1"
    }
  },
  {
    "file": "src/proto_018_Proxford/lib_client/test/test_michelson_v1_macros.ml",
    "title": "018-Proxford: micheline v1 macros (assert right expansion)",
    "tags": [
      "alcotezt",
      "quick",
      "oxford"
    ],
    "successful_runs": {
      "total_time": "225",
      "count": "1"
    }
  },
  {
    "file": "src/proto_017_PtNairob/lib_protocol/test/unit/test_tez_repr.ml",
    "title": "017-PtNairob: Tez_repr.ml (Tez.substract: basic behaviour)",
    "tags": [
      "alcotezt",
      "quick",
      "nairobi"
    ],
    "successful_runs": {
      "total_time": "159",
      "count": "1"
    }
  },
  {
    "file": "src/proto_017_PtNairob/lib_protocol/test/unit/test_sc_rollup_storage.ml",
    "title": "017-PtNairob: sc rollup storage (Record messages in storage outbox limits)",
    "tags": [
      "alcotezt",
      "quick",
      "nairobi"
    ],
    "successful_runs": {
      "total_time": "8980",
      "count": "1"
    }
  },
  {
    "file": "src/proto_017_PtNairob/lib_protocol/test/unit/test_merkle_list.ml",
    "title": "017-PtNairob: merkle list (check_path_negative_pos)",
    "tags": [
      "alcotezt",
      "quick",
      "nairobi"
    ],
    "successful_runs": {
      "total_time": "296",
      "count": "1"
    }
  },
  {
    "file": "src/proto_017_PtNairob/lib_protocol/test/integration/operations/test_zk_rollup.ml",
    "title": "017-PtNairob: zk rollup (update with false proof)",
    "tags": [
      "alcotezt",
      "quick",
      "nairobi"
    ],
    "successful_runs": {
      "total_time": "1710994",
      "count": "1"
    }
  },
  {
    "file": "src/proto_017_PtNairob/lib_protocol/test/integration/operations/test_sc_rollup.ml",
    "title": "017-PtNairob: sc rollup (a player can't timeout another player before timeout period and related timeout value.)",
    "tags": [
      "alcotezt",
      "quick",
      "nairobi"
    ],
    "successful_runs": {
      "total_time": "69559",
      "count": "1"
    }
  },
  {
    "file": "src/proto_017_PtNairob/lib_protocol/test/integration/operations/test_sc_rollup_transfer.ml",
    "title": "017-PtNairob: sc rollup transfer (Transfer of non-zero-amount ticket)",
    "tags": [
      "alcotezt",
      "quick",
      "nairobi"
    ],
    "successful_runs": {
      "total_time": "11146",
      "count": "1"
    }
  },
  {
    "file": "src/proto_017_PtNairob/lib_protocol/test/integration/operations/test_reveal.ml",
    "title": "017-PtNairob: revelation (cannot batch a good reveal after a gas-exhausted one)",
    "tags": [
      "alcotezt",
      "quick",
      "nairobi"
    ],
    "successful_runs": {
      "total_time": "8871",
      "count": "1"
    }
  },
  {
    "file": "src/proto_017_PtNairob/lib_protocol/test/integration/operations/test_combined_operations.ml",
    "title": "017-PtNairob: combined (Failing operation in the middle)",
    "tags": [
      "alcotezt",
      "quick",
      "nairobi"
    ],
    "successful_runs": {
      "total_time": "10186",
      "count": "1"
    }
  },
  {
    "file": "src/proto_017_PtNairob/lib_protocol/test/integration/michelson/test_typechecking.ml",
    "title": "017-PtNairob: typechecking (comb type parsing)",
    "tags": [
      "alcotezt",
      "quick",
      "nairobi"
    ],
    "successful_runs": {
      "total_time": "8197",
      "count": "1"
    }
  },
  {
    "file": "src/proto_017_PtNairob/lib_protocol/test/integration/michelson/test_ticket_scanner.ml",
    "title": "017-PtNairob: ticket scanner (tickets in pair)",
    "tags": [
      "alcotezt",
      "quick",
      "nairobi"
    ],
    "successful_runs": {
      "total_time": "7774",
      "count": "1"
    }
  },
  {
    "file": "src/proto_017_PtNairob/lib_protocol/test/integration/michelson/test_ticket_balance_key.ml",
    "title": "017-PtNairob: ticket balance key (option none)",
    "tags": [
      "alcotezt",
      "quick",
      "nairobi"
    ],
    "successful_runs": {
      "total_time": "7983",
      "count": "1"
    }
  },
  {
    "file": "src/proto_017_PtNairob/lib_protocol/test/integration/michelson/test_interpretation.ml",
    "title": "017-PtNairob: interpretation (lambda_rec instruction storage apply store)",
    "tags": [
      "alcotezt",
      "quick",
      "nairobi"
    ],
    "successful_runs": {
      "total_time": "16693",
      "count": "1"
    }
  },
  {
    "file": "src/proto_017_PtNairob/lib_protocol/test/integration/consensus/test_double_endorsement.ml",
    "title": "017-PtNairob: double endorsement (valid evidence with same (pre)endorsements on different branches)",
    "tags": [
      "alcotezt",
      "quick",
      "nairobi"
    ],
    "successful_runs": {
      "total_time": "12128",
      "count": "1"
    }
  },
  {
    "file": "src/proto_017_PtNairob/lib_protocol/test/integration/consensus/test_delegation.ml",
    "title": "017-PtNairob: delegation (double registration when delegate account is emptied and then recredited)",
    "tags": [
      "alcotezt",
      "quick",
      "nairobi"
    ],
    "successful_runs": {
      "total_time": "15182",
      "count": "1"
    }
  },
  {
    "file": "src/proto_017_PtNairob/lib_protocol/test/integration/test_storage_functions.ml",
    "title": "017-PtNairob: storage tests (length test)",
    "tags": [
      "alcotezt",
      "quick",
      "nairobi"
    ],
    "successful_runs": {
      "total_time": "1780",
      "count": "1"
    }
  },
  {
    "file": "src/proto_017_PtNairob/lib_protocol/test/integration/test_frozen_bonds.ml",
    "title": "017-PtNairob: frozen bonds (delegate, freeze, unfreeze, undelegate)",
    "tags": [
      "alcotezt",
      "quick",
      "nairobi"
    ],
    "successful_runs": {
      "total_time": "6186",
      "count": "1"
    }
  },
  {
    "file": "src/proto_017_PtNairob/lib_plugin/test/test_fee_needed_to_replace_by_fee.ml",
    "title": "017-PtNairob/plugin: fee_needed_to_replace_by_fee: hand-picked fee and gas",
    "tags": [
      "nairobi",
      "plugin",
      "mempool",
      "fee_needed_to_replace_by_fee",
      "manager",
      "handpicked"
    ],
    "successful_runs": {
      "total_time": "149663",
      "count": "1"
    }
  },
  {
    "file": "src/proto_017_PtNairob/lib_client/test/test_michelson_v1_macros.ml",
    "title": "017-PtNairob: micheline v1 macros (set_car annot unexpansion)",
    "tags": [
      "alcotezt",
      "quick",
      "nairobi"
    ],
    "successful_runs": {
      "total_time": "203",
      "count": "1"
    }
  },
  {
    "file": "src/lib_webassembly/tests/smallint.ml",
    "title": "WebAssembly reference interpreter tests: Smallint (Check_smallint)",
    "tags": [
      "alcotezt",
      "quick"
    ],
    "successful_runs": {
      "total_time": "162",
      "count": "1"
    }
  },
  {
    "file": "src/lib_tree_encoding/test/test_encoding.ml",
    "title": "test lib tree encoding: Encodings (Swap vectors)",
    "tags": [
      "alcotezt",
      "quick"
    ],
    "successful_runs": {
      "total_time": "226",
      "count": "1"
    }
  },
  {
    "file": "src/lib_store/unix/test/test.ml",
    "title": "tezos-store: reconstruct (Reconstructing on a bootstrapped Full mode node with 8 blocks.)",
    "tags": [
      "alcotezt",
      "quick"
    ],
    "successful_runs": {
      "total_time": "72295",
      "count": "1"
    }
  },
  {
    "file": "src/lib_store/unix/test/test.ml",
    "title": "tezos-store: history_mode_switch (switching from Full mode to Rolling mode + 1 extra cycles with 72 blocks baked and cycle length 8)",
    "tags": [
      "alcotezt",
      "quick"
    ],
    "successful_runs": {
      "total_time": "662935",
      "count": "1"
    }
  },
  {
    "file": "src/lib_stdlib/test-unix/test_hash_queue_lwt.ml",
    "title": "stdlib: hash_queue_lwt (fold_es)",
    "tags": [
      "alcotezt",
      "quick"
    ],
    "successful_runs": {
      "total_time": "179",
      "count": "1"
    }
  },
  {
    "file": "src/lib_stdlib/test-unix/test_circular_buffer.ml",
    "title": "tezos-stdlib: circular_buffer.fail_cases (Read_too_long-in_buffer)",
    "tags": [
      "alcotezt",
      "quick"
    ],
    "successful_runs": {
      "total_time": "159",
      "count": "1"
    }
  },
  {
    "file": "src/lib_shell/test/test_synchronisation_heuristic.ml",
    "title": "tezos-shell: synchronisation heuristic  (test bp create 2)",
    "tags": [
      "alcotezt",
      "quick"
    ],
    "successful_runs": {
      "total_time": "168",
      "count": "1"
    }
  },
  {
    "file": "src/lib_scoru_wasm/test/test_wasm_pvm.ml",
    "title": "test lib scoru wasm: WASM PVM (Test store_create available (2.0.0-r4))",
    "tags": [
      "alcotezt",
      "quick"
    ],
    "successful_runs": {
      "total_time": "3707",
      "count": "1"
    }
  },
  {
    "file": "src/lib_scoru_wasm/test/test_wasm_pvm.ml",
    "title": "test lib scoru wasm: WASM PVM (Test /readonly/kernel/env/reboot_counter (2.0.0-r4))",
    "tags": [
      "alcotezt",
      "quick"
    ],
    "successful_runs": {
      "total_time": "18302",
      "count": "1"
    }
  },
  {
    "file": "src/lib_scoru_wasm/test/test_wasm_pvm.ml",
    "title": "test lib scoru wasm: WASM PVM (Test outboxes are created at each level (2.0.0-r4))",
    "tags": [
      "alcotezt",
      "quick"
    ],
    "successful_runs": {
      "total_time": "8666",
      "count": "1"
    }
  },
  {
    "file": "src/lib_scoru_wasm/test/test_output.ml",
    "title": "test lib scoru wasm: Output (Host write (2.0.0))",
    "tags": [
      "alcotezt",
      "quick"
    ],
    "successful_runs": {
      "total_time": "427",
      "count": "1"
    }
  },
  {
    "file": "src/lib_scoru_wasm/test/test_fixed_nb_ticks.ml",
    "title": "test lib scoru wasm: Max nb of ticks (nb of ticks limited (2.0.0-r1))",
    "tags": [
      "alcotezt",
      "quick"
    ],
    "successful_runs": {
      "total_time": "3586",
      "count": "1"
    }
  },
  {
    "file": "src/lib_scoru_wasm/test/test_durable_storage.ml",
    "title": "test lib scoru wasm: Durable storage (store_delete removes subtree and value (2.0.0))",
    "tags": [
      "alcotezt",
      "quick"
    ],
    "successful_runs": {
      "total_time": "504",
      "count": "1"
    }
  },
  {
    "file": "src/lib_scoru_wasm/test/test_durable_storage.ml",
    "title": "test lib scoru wasm: Durable storage (store_read on non-value (2.0.0))",
    "tags": [
      "alcotezt",
      "quick"
    ],
    "successful_runs": {
      "total_time": "400",
      "count": "1"
    }
  },
  {
    "file": "src/lib_scoru_wasm/regressions/tezos_scoru_wasm_regressions.ml",
    "title": "kernel link_store_create run (proof, v3)",
    "tags": [
      "regression",
      "wasm_2_0_0",
      "link_store_create",
      "proof",
      "v3"
    ],
    "successful_runs": {
      "total_time": "3414846",
      "count": "1"
    }
  },
  {
    "file": "src/lib_scoru_wasm/fast/test/test_fast.ml",
    "title": "test lib scoru-wasm-fast: Fast Execution (Store read/write kernel (2.0.0-r4))",
    "tags": [
      "alcotezt",
      "quick"
    ],
    "successful_runs": {
      "total_time": "5466804",
      "count": "1"
    }
  },
  {
    "file": "src/lib_requester/test/test_requester.ml",
    "title": "tezos-requester: all (test known: found values in disk are cached)",
    "tags": [
      "alcotezt",
      "quick"
    ],
    "successful_runs": {
      "total_time": "248",
      "count": "1"
    }
  },
  {
    "file": "src/lib_polynomial/test/test_with_finite_field.ml",
    "title": "Polynomials with F379 and some random prime fields: Dense polynomial coefficients for prime field 143223727 (test vectors)",
    "tags": [
      "alcotezt",
      "quick"
    ],
    "successful_runs": {
      "total_time": "190",
      "count": "1"
    }
  },
  {
    "file": "src/lib_polynomial/test/test_with_finite_field.ml",
    "title": "Polynomials with F379 and some random prime fields: Tests for constant polynomials, field order = 52435875175126190479447740508185965837690552500527637822603658699938581184513 (zero polynomial is constant)",
    "tags": [
      "alcotezt",
      "quick"
    ],
    "successful_runs": {
      "total_time": "154",
      "count": "1"
    }
  },
  {
    "file": "src/lib_polynomial/test/test_with_finite_field.ml",
    "title": "Polynomials with F379 and some random prime fields: Extended Euclide alogrithm for prime field 57896044618658097711785492504343953926634992332820282019728792003956564819949 (test properties on random polynomials)",
    "tags": [
      "alcotezt",
      "quick"
    ],
    "successful_runs": {
      "total_time": "1199425",
      "count": "1"
    }
  },
  {
    "file": "src/lib_polynomial/test/test_with_finite_field.ml",
    "title": "Polynomials with F379 and some random prime fields: Test evaluation, field order = 379 (evaluation at any point of the polynomial X)",
    "tags": [
      "alcotezt",
      "quick"
    ],
    "successful_runs": {
      "total_time": "293",
      "count": "1"
    }
  },
  {
    "file": "src/lib_mec/test/test_vesta_jacobian.ml",
    "title": "Vesta jacobian coordinates: equality (zero)",
    "tags": [
      "alcotezt",
      "quick"
    ],
    "successful_runs": {
      "total_time": "216",
      "count": "1"
    }
  },
  {
    "file": "src/lib_mec/test/test_vesta_affine.ml",
    "title": "Vesta affine coordinates: Group properties (multiplication_properties_on_base_field_element)",
    "tags": [
      "alcotezt",
      "quick"
    ],
    "successful_runs": {
      "total_time": "1673782",
      "count": "1"
    }
  },
  {
    "file": "src/lib_mec/test/test_tweedledum_projective.ml",
    "title": "Tweedledum projective coordinates: Group properties (opposite_equality)",
    "tags": [
      "alcotezt",
      "quick"
    ],
    "successful_runs": {
      "total_time": "5977",
      "count": "1"
    }
  },
  {
    "file": "src/lib_mec/test/test_tweedledum_jacobian.ml",
    "title": "Tweedledum jacobian coordinates: Group properties (Generator is of prime order)",
    "tags": [
      "alcotezt",
      "quick"
    ],
    "successful_runs": {
      "total_time": "169",
      "count": "1"
    }
  },
  {
    "file": "src/lib_mec/test/test_tweedledee_projective.ml",
    "title": "Tweedledee projective coordinates: value generation (double_with_one)",
    "tags": [
      "alcotezt",
      "quick"
    ],
    "successful_runs": {
      "total_time": "648",
      "count": "1"
    }
  },
  {
    "file": "src/lib_mec/test/test_tweedledee_jacobian.ml",
    "title": "Tweedledee jacobian coordinates: Group properties (opposite_of_opposite)",
    "tags": [
      "alcotezt",
      "quick"
    ],
    "successful_runs": {
      "total_time": "13141",
      "count": "1"
    }
  },
  {
    "file": "src/lib_mec/test/test_tweedledee_affine.ml",
    "title": "Tweedledee affine coordinates: Group properties (additive_associativity_with_scalar)",
    "tags": [
      "alcotezt",
      "quick"
    ],
    "successful_runs": {
      "total_time": "833824",
      "count": "1"
    }
  },
  {
    "file": "src/lib_mec/test/test_secp256r1_projective.ml",
    "title": "secp256r1 projective coordinates: value generation (double_with_one)",
    "tags": [
      "alcotezt",
      "quick"
    ],
    "successful_runs": {
      "total_time": "201",
      "count": "1"
    }
  },
  {
    "file": "src/lib_mec/test/test_secp256r1_jacobian.ml",
    "title": "secp256r1 jacobian coordinates: Group properties (opposite_of_opposite)",
    "tags": [
      "alcotezt",
      "quick"
    ],
    "successful_runs": {
      "total_time": "4307",
      "count": "1"
    }
  },
  {
    "file": "src/lib_mec/test/test_secp256r1_affine.ml",
    "title": "secp256r1 affine coordinates: Group properties (additive_associativity_with_scalar)",
    "tags": [
      "alcotezt",
      "quick"
    ],
    "successful_runs": {
      "total_time": "832998",
      "count": "1"
    }
  },
  {
    "file": "src/lib_mec/test/test_secp256k1_jacobian.ml",
    "title": "secp256k1 jacobian coordinates: value generation (addition generates a valid point)",
    "tags": [
      "alcotezt",
      "quick"
    ],
    "successful_runs": {
      "total_time": "8414",
      "count": "1"
    }
  },
  {
    "file": "src/lib_mec/test/test_secp256k1_affine.ml",
    "title": "secp256k1 affine coordinates: Group properties (opposite_equality)",
    "tags": [
      "alcotezt",
      "quick"
    ],
    "successful_runs": {
      "total_time": "11118",
      "count": "1"
    }
  },
  {
    "file": "src/lib_mec/test/test_pallas_projective.ml",
    "title": "Pallas projective coordinates: Group properties (zero_scalar_nullifier_zero)",
    "tags": [
      "alcotezt",
      "quick"
    ],
    "successful_runs": {
      "total_time": "178",
      "count": "1"
    }
  },
  {
    "file": "src/lib_mec/test/test_pallas_jacobian.ml",
    "title": "Pallas jacobian coordinates: Group properties (double)",
    "tags": [
      "alcotezt",
      "quick"
    ],
    "successful_runs": {
      "total_time": "14612",
      "count": "1"
    }
  },
  {
    "file": "src/lib_mec/test/test_pallas_affine.ml",
    "title": "Pallas affine coordinates: Compressed representation (Compressed version is half the size)",
    "tags": [
      "alcotezt",
      "quick"
    ],
    "successful_runs": {
      "total_time": "246",
      "count": "1"
    }
  },
  {
    "file": "src/lib_mec/test/test_jubjub_weierstrass.ml",
    "title": "Jubjub - Weierstrass - Affine coordinates: Group properties (check_bytes_random)",
    "tags": [
      "alcotezt",
      "quick"
    ],
    "successful_runs": {
      "total_time": "18943",
      "count": "1"
    }
  },
  {
    "file": "src/lib_mec/test/test_jubjub.ml",
    "title": "Jubjub: Group properties (multiply_by_one_does_nothing)",
    "tags": [
      "alcotezt",
      "quick"
    ],
    "successful_runs": {
      "total_time": "15220",
      "count": "1"
    }
  },
  {
    "file": "src/lib_mec/test/test_iso_pallas_affine.ml",
    "title": "Iso Pallas affine form: Group properties (check_bytes_one)",
    "tags": [
      "alcotezt",
      "quick"
    ],
    "successful_runs": {
      "total_time": "122",
      "count": "1"
    }
  },
  {
    "file": "src/lib_mec/test/test_curve448.ml",
    "title": "Curve448: Group properties (check_bytes_random_multiplication)",
    "tags": [
      "alcotezt",
      "quick"
    ],
    "successful_runs": {
      "total_time": "627177",
      "count": "1"
    }
  },
  {
    "file": "src/lib_mec/test/test_curve25519_affine_edwards.ml",
    "title": "Curve25519 edwards form and affine coordinates: value generation (double_with_random)",
    "tags": [
      "alcotezt",
      "quick"
    ],
    "successful_runs": {
      "total_time": "10520",
      "count": "1"
    }
  },
  {
    "file": "src/lib_mec/test/test_bn254_jacobian.ml",
    "title": "BN254 jacobian coordinates: value generation (addition generates a valid point)",
    "tags": [
      "alcotezt",
      "quick"
    ],
    "successful_runs": {
      "total_time": "7255",
      "count": "1"
    }
  },
  {
    "file": "src/lib_mec/test/test_bn254_affine.ml",
    "title": "BN254 affine form: Group properties (multiply_by_one_does_nothing)",
    "tags": [
      "alcotezt",
      "quick"
    ],
    "successful_runs": {
      "total_time": "3242",
      "count": "1"
    }
  },
  {
    "file": "src/lib_mec/test/test_bls12_381_projective.ml",
    "title": "BLS12-381 G1 projective form: Group properties (check_bytes_random)",
    "tags": [
      "alcotezt",
      "quick"
    ],
    "successful_runs": {
      "total_time": "200333",
      "count": "1"
    }
  },
  {
    "file": "src/lib_mec/test/test_bandersnatch_affine_montgomery.ml",
    "title": "Bandersnatch Montgomery form and affine coordinates: value generation (double_with_zero)",
    "tags": [
      "alcotezt",
      "quick"
    ],
    "successful_runs": {
      "total_time": "112",
      "count": "1"
    }
  },
  {
    "file": "src/lib_mec/test/test_bandersnatch_affine_edwards.ml",
    "title": "Bandersnatch Edwards form, affine coordinates: Group properties (opposite_of_scalar_is_opposite_of_ec)",
    "tags": [
      "alcotezt",
      "quick"
    ],
    "successful_runs": {
      "total_time": "472472",
      "count": "1"
    }
  },
  {
    "file": "src/lib_mec/test/test_babyjubjub_reduced.ml",
    "title": "BabyJubjub reduced twisted edwards form: Group properties (additive_commutativity)",
    "tags": [
      "alcotezt",
      "quick"
    ],
    "successful_runs": {
      "total_time": "28376",
      "count": "1"
    }
  },
  {
    "file": "src/lib_mec/test/test_babyjubjub.ml",
    "title": "BabyJubjub: Group properties (multiplication_properties_on_base_field_element)",
    "tags": [
      "alcotezt",
      "quick"
    ],
    "successful_runs": {
      "total_time": "1435935",
      "count": "1"
    }
  },
  {
    "file": "src/lib_hacl/test/test_hacl.ml",
    "title": "tezos-crypto: p256 (sign)",
    "tags": [
      "alcotezt",
      "quick"
    ],
    "successful_runs": {
      "total_time": "6719",
      "count": "1"
    }
  },
  {
    "file": "src/lib_dac_node/test/test_data_streamer.ml",
    "title": "lib_dac_node: Data_streamer.ml (Test order of subscription)",
    "tags": [
      "alcotezt",
      "quick"
    ],
    "successful_runs": {
      "total_time": "218",
      "count": "1"
    }
  },
  {
    "file": "src/lib_context/test/test_context.ml",
    "title": "tezos-context: context (disk:proof exn)",
    "tags": [
      "alcotezt",
      "quick"
    ],
    "successful_runs": {
      "total_time": "2597",
      "count": "1"
    }
  },
  {
    "file": "src/lib_bls12_381_signature/test/test_signature.ml",
    "title": "BLS Signature: Common features to both instanciations (sk_of_bytes_opt does not accept more than 32 bytes)",
    "tags": [
      "alcotezt",
      "quick"
    ],
    "successful_runs": {
      "total_time": "813",
      "count": "1"
    }
  },
  {
    "file": "src/lib_bls12_381_signature/test/test_signature.ml",
    "title": "BLS Signature: MinPk Properties and test vectors for Proof of possession (Test full sign and verify with different ikm sizes)",
    "tags": [
      "alcotezt",
      "quick"
    ],
    "successful_runs": {
      "total_time": "245043",
      "count": "1"
    }
  },
  {
    "file": "src/lib_bls12_381_signature/test/test_signature.ml",
    "title": "BLS Signature: MinSig Properties and test vectors for Proof of possession (Sign and verify with a pk not in the prime subgroup)",
    "tags": [
      "alcotezt",
      "quick"
    ],
    "successful_runs": {
      "total_time": "3731",
      "count": "1"
    }
  },
  {
    "file": "src/lib_bls12_381_polynomial/test/test_main.ml",
    "title": "PlonK: Evaluations_c (test_linear_zero_composition_gx)",
    "tags": [
      "alcotezt",
      "quick"
    ],
    "successful_runs": {
      "total_time": "581",
      "count": "1"
    }
  },
  {
    "file": "src/lib_bls12_381/test/test_g2.ml",
    "title": "G2: Representation of G2 Uncompressed (of_bytes_opt/exn do not accept compressed bytes representation)",
    "tags": [
      "alcotezt",
      "quick"
    ],
    "successful_runs": {
      "total_time": "888716",
      "count": "1"
    }
  },
  {
    "file": "src/lib_bls12_381/test/test_g1.ml",
    "title": "G1: value generation (double_with_one)",
    "tags": [
      "alcotezt",
      "quick"
    ],
    "successful_runs": {
      "total_time": "149",
      "count": "1"
    }
  },
  {
    "file": "src/lib_bls12_381/test/test_g1.ml",
    "title": "G1: Compressed representation (Most significant bit is set to 1)",
    "tags": [
      "alcotezt",
      "quick"
    ],
    "successful_runs": {
      "total_time": "16617",
      "count": "1"
    }
  },
  {
    "file": "src/lib_bls12_381/test/test_fr.ml",
    "title": "Fr: Memory (size in memory)",
    "tags": [
      "alcotezt",
      "quick"
    ],
    "successful_runs": {
      "total_time": "184",
      "count": "1"
    }
  },
  {
    "file": "src/lib_bls12_381/test/test_fq12.ml",
    "title": "Fq12: is one (is_one with gt zero)",
    "tags": [
      "alcotezt",
      "quick"
    ],
    "successful_runs": {
      "total_time": "138",
      "count": "1"
    }
  },
  {
    "file": "src/lib_base/unix/test/test_unix_error.ml",
    "title": "Base.unix.unix_error: encoding (binary encoding roundtrip)",
    "tags": [
      "alcotezt",
      "quick"
    ],
    "successful_runs": {
      "total_time": "222",
      "count": "1"
    }
  },
  {
    "file": "src/lib_base/test/test_sized.ml",
    "title": "Sized: SizedSet (empty)",
    "tags": [
      "alcotezt",
      "quick"
    ],
    "successful_runs": {
      "total_time": "122",
      "count": "1"
    }
  },
  {
    "file": "etherlink/tezt/tests/evm_rollup.ml",
    "title": "Alpha: Returns an error if the nonce is too low (sequencer)",
    "tags": [
      "admin_client",
      "alpha",
      "client",
      "evm",
      "evm_kernel",
      "evm_node",
      "node",
      "nonce",
      "sequencer",
      "smart_rollup_installer",
      "smart_rollup_node"
    ],
    "successful_runs": {
      "total_time": "11868832",
      "count": "1"
    }
  },
  {
    "file": "etherlink/tezt/tests/evm_rollup.ml",
    "title": "Alpha: Check getLogs RPC (proxy)",
    "tags": [
      "admin_client",
      "alpha",
      "client",
      "evm",
      "evm_kernel",
      "evm_node",
      "get_logs",
      "node",
      "proxy",
      "rpc",
      "smart_rollup_installer",
      "smart_rollup_node"
    ],
    "successful_runs": {
      "total_time": "94687399",
      "count": "1"
    }
  },
  {
    "file": "tezt/tests/protocol_migration.ml",
    "title": "protocol migration at level 10",
    "tags": [
      "admin_client",
      "client",
      "migration",
      "node",
      "protocol",
      "sandbox"
    ],
    "successful_runs": {
      "total_time": "19337181",
      "count": "1"
    }
  },
  {
    "file": "tezt/tests/protocol_table_update.ml",
    "title": "protocol table",
    "tags": [
      "admin_client",
      "branch",
      "client",
      "node",
      "protocol",
      "protocol_table"
    ],
    "successful_runs": {
      "total_time": "7354614",
      "count": "1"
    }
  },
  {
    "file": "tezt/tests/sc_rollup_migration.ml",
    "title": "Nairobi->Oxford: arith - node can catch up on protocol migration",
    "tags": [
      "admin_client",
      "arith",
      "catchup",
      "client",
      "etherlink",
      "l2",
      "migration",
      "nairobi",
      "node",
      "oxford",
      "smart_rollup_node"
    ],
    "successful_runs": {
      "total_time": "13177690",
      "count": "1"
    }
  },
  {
    "file": "tezt/tests/baking.ml",
    "title": "Nairobi: External operations are ordered (5 transfers, max 1 operations)",
    "tags": [
      "admin_client",
      "baking",
      "client",
      "nairobi",
      "node",
      "operations_pool"
    ],
    "successful_runs": {
      "total_time": "8318447",
      "count": "1"
    }
  },
  {
    "file": "tezt/tests/basic.ml",
    "title": "Oxford: node initialization (archive mode)",
    "tags": [
      "admin_client",
      "archive",
      "basic",
      "client",
      "node",
      "oxford"
    ],
    "successful_runs": {
      "total_time": "6119043",
      "count": "1"
    }
  },
  {
    "file": "tezt/tests/cache_cache.ml",
    "title": "Nairobi: cache consistency on singleprocess reorg",
    "tags": [
      "admin_client",
      "client",
      "nairobi",
      "node",
      "protocol_cache",
      "reorg",
      "singleprocess"
    ],
    "successful_runs": {
      "total_time": "29599258",
      "count": "1"
    }
  },
  {
    "file": "tezt/tests/cache_cache.ml",
    "title": "Alpha: cache consistency on singleprocess reorg",
    "tags": [
      "admin_client",
      "alpha",
      "client",
      "node",
      "protocol_cache",
      "reorg",
      "singleprocess"
    ],
    "successful_runs": {
      "total_time": "26352826",
      "count": "1"
    }
  },
  {
    "file": "tezt/tests/client_commands.ml",
    "title": "Oxford: Simulation of first failing operation in batch with force",
    "tags": [
      "admin_client",
      "batch",
      "client",
      "failing",
      "force",
      "multiple",
      "node",
      "oxford",
      "simulation"
    ],
    "successful_runs": {
      "total_time": "2819644",
      "count": "1"
    }
  },
  {
    "file": "tezt/tests/client_run_view.ml",
    "title": "Nairobi: Run view on non existing contract",
    "tags": [
      "admin_client",
      "client",
      "michelson",
      "nairobi",
      "view"
    ],
    "successful_runs": {
      "total_time": "608690",
      "count": "1"
    }
  },
  {
    "file": "tezt/tests/comparable_datatype.ml",
    "title": "Alpha: Run `comparable_key_different_schemes`",
    "tags": [
      "admin_client",
      "alpha",
      "client",
      "comparable",
      "michelson",
      "typechecking"
    ],
    "successful_runs": {
      "total_time": "3933213",
      "count": "1"
    }
  },
  {
    "file": "tezt/tests/contract_entrypoints.ml",
    "title": "Oxford: test create_contract_rootname_alt",
    "tags": [
      "admin_client",
      "client",
      "michelson",
      "oxford"
    ],
    "successful_runs": {
      "total_time": "1286068",
      "count": "1"
    }
  },
  {
    "file": "tezt/tests/contract_onchain_opcodes.ml",
    "title": "Oxford: Contract onchain opcodes: test_store_input",
    "tags": [
      "regression",
      "admin_client",
      "client",
      "contract",
      "onchain",
      "opcodes",
      "oxford"
    ],
    "successful_runs": {
      "total_time": "1844672",
      "count": "1"
    }
  },
  {
    "file": "tezt/tests/contract_opcodes.ml",
    "title": "Nairobi: opcodes [loop_left--storage528921618--input851203613]",
    "tags": [
      "regression",
      "admin_client",
      "client",
      "michelson",
      "nairobi"
    ],
    "successful_runs": {
      "total_time": "310078",
      "count": "1"
    }
  },
  {
    "file": "tezt/tests/contract_opcodes.ml",
    "title": "Alpha: opcodes [slice--storage364922380--input359592843]",
    "tags": [
      "regression",
      "admin_client",
      "alpha",
      "client",
      "michelson"
    ],
    "successful_runs": {
      "total_time": "313297",
      "count": "1"
    }
  },
  {
    "file": "tezt/tests/contract_opcodes.ml",
    "title": "Nairobi: opcodes [slice_bytes--storage229749865--input743596105]",
    "tags": [
      "regression",
      "admin_client",
      "client",
      "michelson",
      "nairobi"
    ],
    "successful_runs": {
      "total_time": "298933",
      "count": "1"
    }
  },
  {
    "file": "tezt/tests/contract_opcodes.ml",
    "title": "Alpha: opcodes [or--storage921624073--input106930123]",
    "tags": [
      "regression",
      "admin_client",
      "alpha",
      "client",
      "michelson"
    ],
    "successful_runs": {
      "total_time": "312239",
      "count": "1"
    }
  },
  {
    "file": "tezt/tests/contract_opcodes.ml",
    "title": "Oxford: opcodes [not_binary--storage921624073--input1051197453]",
    "tags": [
      "regression",
      "admin_client",
      "client",
      "michelson",
      "oxford"
    ],
    "successful_runs": {
      "total_time": "296595",
      "count": "1"
    }
  },
  {
    "file": "tezt/tests/contract_opcodes.ml",
    "title": "Oxford: opcodes [shifts--storage921624073--input271566295]",
    "tags": [
      "regression",
      "admin_client",
      "client",
      "michelson",
      "oxford"
    ],
    "successful_runs": {
      "total_time": "302077",
      "count": "1"
    }
  },
  {
    "file": "tezt/tests/contract_opcodes.ml",
    "title": "Alpha: opcodes [list_id--storage528921618--input264787654]",
    "tags": [
      "regression",
      "admin_client",
      "alpha",
      "client",
      "michelson"
    ],
    "successful_runs": {
      "total_time": "294826",
      "count": "1"
    }
  },
  {
    "file": "tezt/tests/contract_opcodes.ml",
    "title": "Oxford: opcodes [list_concat--storage717096222--input457300675]",
    "tags": [
      "regression",
      "admin_client",
      "client",
      "michelson",
      "oxford"
    ],
    "successful_runs": {
      "total_time": "290651",
      "count": "1"
    }
  },
  {
    "file": "tezt/tests/contract_opcodes.ml",
    "title": "Oxford: opcodes [contains_all--storage921624073--input545734274]",
    "tags": [
      "regression",
      "admin_client",
      "client",
      "michelson",
      "oxford"
    ],
    "successful_runs": {
      "total_time": "296425",
      "count": "1"
    }
  },
  {
    "file": "tezt/tests/contract_opcodes.ml",
    "title": "Nairobi: opcodes [add_delta_timestamp--storage921624073--input438561129]",
    "tags": [
      "regression",
      "admin_client",
      "client",
      "michelson",
      "nairobi"
    ],
    "successful_runs": {
      "total_time": "294327",
      "count": "1"
    }
  },
  {
    "file": "tezt/tests/contract_opcodes.ml",
    "title": "Nairobi: opcodes [packunpack_rev_cty--storage125992234--input1028781121]",
    "tags": [
      "regression",
      "admin_client",
      "client",
      "michelson",
      "nairobi"
    ],
    "successful_runs": {
      "total_time": "329635",
      "count": "1"
    }
  },
  {
    "file": "tezt/tests/contract_opcodes.ml",
    "title": "Nairobi: opcodes [ediv_mutez--storage977883604--input147133089]",
    "tags": [
      "regression",
      "admin_client",
      "client",
      "michelson",
      "nairobi"
    ],
    "successful_runs": {
      "total_time": "308515",
      "count": "1"
    }
  },
  {
    "file": "tezt/tests/contract_opcodes.ml",
    "title": "Alpha: opcodes [ediv_mutez--storage977883604--input147133089]",
    "tags": [
      "regression",
      "admin_client",
      "alpha",
      "client",
      "michelson"
    ],
    "successful_runs": {
      "total_time": "289632",
      "count": "1"
    }
  },
  {
    "file": "tezt/tests/contract_opcodes.ml",
    "title": "Alpha: opcodes [contract--storage125992234--input117475800]",
    "tags": [
      "regression",
      "admin_client",
      "alpha",
      "client",
      "michelson"
    ],
    "successful_runs": {
      "total_time": "300856",
      "count": "1"
    }
  },
  {
    "file": "tezt/tests/contract_opcodes.ml",
    "title": "Alpha: opcodes [bls12_381_fr_z_int--storage994282947--input564400327]",
    "tags": [
      "regression",
      "admin_client",
      "alpha",
      "client",
      "michelson"
    ],
    "successful_runs": {
      "total_time": "318425",
      "count": "1"
    }
  },
  {
    "file": "tezt/tests/contract_opcodes.ml",
    "title": "Oxford: opcodes [bls12_381_fr_z_int--storage739946440--input583291483]",
    "tags": [
      "regression",
      "admin_client",
      "client",
      "michelson",
      "oxford"
    ],
    "successful_runs": {
      "total_time": "307967",
      "count": "1"
    }
  },
  {
    "file": "tezt/tests/contract_opcodes.ml",
    "title": "Nairobi: opcodes [bls12_381_z_fr_int--storage994282947--input585234482]",
    "tags": [
      "regression",
      "admin_client",
      "client",
      "michelson",
      "nairobi"
    ],
    "successful_runs": {
      "total_time": "303055",
      "count": "1"
    }
  },
  {
    "file": "tezt/tests/contract_macros.ml",
    "title": "Nairobi: macros [assert_cmpge--storage125992234--input1011138251]",
    "tags": [
      "admin_client",
      "client",
      "macros",
      "michelson",
      "nairobi"
    ],
    "successful_runs": {
      "total_time": "315346",
      "count": "1"
    }
  },
  {
    "file": "tezt/tests/contract_macros.ml",
    "title": "Alpha: macros [map_caddaadr--storage395477859--input125992234]",
    "tags": [
      "admin_client",
      "alpha",
      "client",
      "macros",
      "michelson"
    ],
    "successful_runs": {
      "total_time": "299697",
      "count": "1"
    }
  },
  {
    "file": "tezt/tests/contract_macros.ml",
    "title": "Alpha: Macro expansion: macros/macro_annotations",
    "tags": [
      "regression",
      "admin_client",
      "alpha",
      "client",
      "macros",
      "michelson"
    ],
    "successful_runs": {
      "total_time": "301260",
      "count": "1"
    }
  },
  {
    "file": "tezt/tests/contract_mini_scenarios.ml",
    "title": "Nairobi: test preimage and signature",
    "tags": [
      "admin_client",
      "client",
      "michelson",
      "mini_scenarios",
      "nairobi"
    ],
    "successful_runs": {
      "total_time": "1532453",
      "count": "1"
    }
  },
  {
    "file": "tezt/tests/encoding.ml",
    "title": "Oxford: protocol encoding regression test: level",
    "tags": [
      "regression",
      "codec",
      "encoding",
      "level",
      "oxford",
      "protocol"
    ],
    "successful_runs": {
      "total_time": "555613",
      "count": "1"
    }
  },
  {
    "file": "tezt/tests/manager_operations.ml",
    "title": "Oxford: Test simple transfer with low balance to pay allocation (1)",
    "tags": [
      "admin_client",
      "client",
      "codec",
      "node",
      "oxford",
      "transaction",
      "transfer"
    ],
    "successful_runs": {
      "total_time": "10322750",
      "count": "1"
    }
  },
  {
    "file": "tezt/tests/mockup.ml",
    "title": "Nairobi: (Mockup) Transfer (asynchronous)",
    "tags": [
      "admin_client",
      "asynchronous",
      "client",
      "mockup",
      "nairobi",
      "transfer"
    ],
    "successful_runs": {
      "total_time": "916970",
      "count": "1"
    }
  },
  {
    "file": "tezt/tests/mockup.ml",
    "title": "Oxford: (Mockup) Create mockup config show / init roundtrip [test_accounts,None,show,show]",
    "tags": [
      "admin_client",
      "base_dir",
      "client",
      "mockup",
      "oxford",
      "roundtrip",
      "show",
      "test_accounts"
    ],
    "successful_runs": {
      "total_time": "1244371",
      "count": "1"
    }
  },
  {
    "file": "tezt/tests/multisig.ml",
    "title": "Oxford: Multisig [by_address:false, generic, sig_algs:None,secp256k1,ed25519]",
    "tags": [
      "admin_client",
      "by_alias",
      "client",
      "generic",
      "multisig",
      "oxford"
    ],
    "successful_runs": {
      "total_time": "20384457",
      "count": "1"
    }
  },
  {
    "file": "tezt/tests/normalize.ml",
    "title": "Nairobi: Test Michelson stack normalization",
    "tags": [
      "regression",
      "admin_client",
      "client",
      "nairobi",
      "normalize"
    ],
    "successful_runs": {
      "total_time": "16229150",
      "count": "1"
    }
  },
  {
    "file": "tezt/tests/prevalidator.ml",
    "title": "Nairobi: Manager_restriction_inject_isolated_node",
    "tags": [
      "admin_client",
      "client",
      "inject",
      "isolated_node",
      "manager_restriction",
      "mempool",
      "nairobi",
      "node"
    ],
    "successful_runs": {
      "total_time": "9305773",
      "count": "1"
    }
  },
  {
    "file": "tezt/tests/proxy.ml",
    "title": "Oxford: (Proxy) (/chains/main/blocks/head/votes/proposals) Cache at most once",
    "tags": [
      "admin_client",
      "client",
      "get",
      "layer1",
      "node",
      "oxford",
      "proxy",
      "rpc"
    ],
    "successful_runs": {
      "total_time": "2897226",
      "count": "1"
    }
  },
  {
    "file": "tezt/tests/RPC_test.ml",
    "title": "Nairobi: (mode light) RPC regression tests: delegates",
    "tags": [
      "regression",
      "admin_client",
      "client",
      "delegates",
      "light",
      "nairobi",
      "node",
      "rpc"
    ],
    "successful_runs": {
      "total_time": "9054585",
      "count": "1"
    }
  },
  {
    "file": "tezt/tests/RPC_test.ml",
    "title": "Alpha: (mode proxy_server_data_dir) RPC regression tests: adaptive_issuance",
    "tags": [
      "regression",
      "adaptive_issuance",
      "admin_client",
      "alpha",
      "client",
      "node",
      "proxy_server",
      "proxy_server_data_dir",
      "rpc"
    ],
    "successful_runs": {
      "total_time": "6828196",
      "count": "1"
    }
  },
  {
    "file": "tezt/tests/run_script.ml",
    "title": "Oxford: Run script with balance and self address",
    "tags": [
      "admin_client",
      "client",
      "michelson",
      "oxford"
    ],
    "successful_runs": {
      "total_time": "2476930",
      "count": "1"
    }
  },
  {
    "file": "tezt/tests/sapling.ml",
    "title": "Oxford: insufficient_funds.unshield",
    "tags": [
      "admin_client",
      "client",
      "node",
      "oxford",
      "sapling"
    ],
    "successful_runs": {
      "total_time": "11249028",
      "count": "1"
    }
  },
  {
    "file": "tezt/tests/sapling.ml",
    "title": "Alpha: test sapling state corruption",
    "tags": [
      "admin_client",
      "alpha",
      "client",
      "sapling",
      "shield",
      "state_corruption"
    ],
    "successful_runs": {
      "total_time": "1256376",
      "count": "1"
    }
  },
  {
    "file": "tezt/tests/script_annotations.ml",
    "title": "Alpha: Tests of Michelson annotations",
    "tags": [
      "admin_client",
      "alpha",
      "annotations",
      "client",
      "michelson"
    ],
    "successful_runs": {
      "total_time": "5289013",
      "count": "1"
    }
  },
  {
    "file": "tezt/tests/script_illtyped.ml",
    "title": "Nairobi: Test Deprecated Typecheck Breaks - legacy/create_contract_flags",
    "tags": [
      "admin_client",
      "client",
      "michelson",
      "nairobi",
      "script",
      "typechecking"
    ],
    "successful_runs": {
      "total_time": "642387",
      "count": "1"
    }
  },
  {
    "file": "tezt/tests/script_illtyped.ml",
    "title": "Alpha: Test Ill Typecheck - stack_bottom_undugable",
    "tags": [
      "admin_client",
      "alpha",
      "client",
      "michelson",
      "script",
      "typechecking"
    ],
    "successful_runs": {
      "total_time": "681216",
      "count": "1"
    }
  },
  {
    "file": "tezt/tests/script_illtyped.ml",
    "title": "Oxford: Test Ill Typecheck - stack_bottom_undropable",
    "tags": [
      "admin_client",
      "client",
      "michelson",
      "oxford",
      "script",
      "typechecking"
    ],
    "successful_runs": {
      "total_time": "660063",
      "count": "1"
    }
  },
  {
    "file": "tezt/tests/script_illtyped.ml",
    "title": "Alpha: Test Ill Typecheck - invalid_self_entrypoint",
    "tags": [
      "admin_client",
      "alpha",
      "client",
      "michelson",
      "script",
      "typechecking"
    ],
    "successful_runs": {
      "total_time": "622881",
      "count": "1"
    }
  },
  {
    "file": "tezt/tests/sc_rollup.ml",
    "title": "Nairobi: wasm_2_0_0 - rollup node - correct handling of commitments (handles_chain_reorgs)",
    "tags": [
      "admin_client",
      "client",
      "commitment",
      "etherlink",
      "nairobi",
      "node",
      "sc_rollup",
      "smart_rollup_node",
      "wasm_2_0_0"
    ],
    "successful_runs": {
      "total_time": "31388723",
      "count": "1"
    }
  },
  {
    "file": "tezt/tests/sc_rollup.ml",
    "title": "Oxford: wasm_2_0_0 - output exec (0, entrypoint: %aux, eager: 0, intern, no_parameters_ty)",
    "tags": [
      "admin_client",
      "aux",
      "client",
      "codec",
      "etherlink",
      "intern",
      "no_parameters_ty",
      "node",
      "outbox",
      "oxford",
      "sc_rollup",
      "smart_rollup_node",
      "wasm_2_0_0"
    ],
    "successful_runs": {
      "total_time": "12325269",
      "count": "1"
    }
  },
  {
    "file": "tezt/tests/sc_rollup.ml",
    "title": "Alpha: wasm_2_0_0 - output exec (0, entrypoint: %aux, eager: 0, extern, no_parameters_ty)",
    "tags": [
      "admin_client",
      "alpha",
      "aux",
      "client",
      "codec",
      "etherlink",
      "extern",
      "no_parameters_ty",
      "node",
      "outbox",
      "sc_rollup",
      "smart_rollup_node",
      "wasm_2_0_0"
    ],
    "successful_runs": {
      "total_time": "11678470",
      "count": "1"
    }
  },
  {
    "file": "tezt/tests/sc_rollup.ml",
    "title": "Oxford: arith - rollup node - correct handling of commitments (no_commitment_publish_before_lcc)",
    "tags": [
      "admin_client",
      "arith",
      "client",
      "commitment",
      "etherlink",
      "node",
      "oxford",
      "sc_rollup",
      "smart_rollup_node"
    ],
    "successful_runs": {
      "total_time": "50821624",
      "count": "1"
    }
  },
  {
    "file": "tezt/tests/sc_rollup.ml",
    "title": "Nairobi: arith - output exec (0, entrypoint: %aux, eager: 0, intern, no_parameters_ty)",
    "tags": [
      "admin_client",
      "arith",
      "aux",
      "client",
      "codec",
      "etherlink",
      "intern",
      "nairobi",
      "no_parameters_ty",
      "node",
      "outbox",
      "sc_rollup",
      "smart_rollup_node"
    ],
    "successful_runs": {
      "total_time": "10464356",
      "count": "1"
    }
  },
  {
    "file": "tezt/tests/signer_test.ml",
    "title": "Oxford: BLS signer test",
    "tags": [
      "admin_client",
      "baker",
      "bls",
      "client",
      "node",
      "oxford",
      "signer"
    ],
    "successful_runs": {
      "total_time": "4452427",
      "count": "1"
    }
  },
  {
    "file": "tezt/tests/storage_reconstruction.ml",
    "title": "Alpha: storage reconstruction",
    "tags": [
      "admin_client",
      "alpha",
      "client",
      "node",
      "reconstruction",
      "storage"
    ],
    "successful_runs": {
      "total_time": "18643208",
      "count": "1"
    }
  },
  {
    "file": "tezt/tests/tenderbake.ml",
    "title": "Alpha: Tenderbake low level repropose",
    "tags": [
      "admin_client",
      "alpha",
      "attest",
      "client",
      "low_level",
      "node",
      "preattest",
      "propose",
      "repropose",
      "tenderbake"
    ],
    "successful_runs": {
      "total_time": "9339612",
      "count": "1"
    }
  },
  {
    "file": "tezt/tests/test_contract_bls12_381.ml",
    "title": "Nairobi: Bls12_381 contract primitives: pairing_check(pos, neg)",
    "tags": [
      "regression",
      "admin_client",
      "bls12_381",
      "client",
      "contract",
      "crypto",
      "michelson",
      "nairobi",
      "pairing_check"
    ],
    "successful_runs": {
      "total_time": "44415365",
      "count": "1"
    }
  },
  {
    "file": "tezt/tests/tickets.ml",
    "title": "Alpha: Overdrafting ticket from implicit accounts must be rejected",
    "tags": [
      "regression",
      "admin_client",
      "alpha",
      "client",
      "michelson"
    ],
    "successful_runs": {
      "total_time": "1924121",
      "count": "1"
    }
  },
  {
    "file": "tezt/tests/views.ml",
    "title": "Nairobi: self address after view - self_address_after_nonexistent_view",
    "tags": [
      "admin_client",
      "client",
      "michelson",
      "nairobi"
    ],
    "successful_runs": {
      "total_time": "1611783",
      "count": "1"
    }
  },
  {
    "file": "tezt/tests/views.ml",
    "title": "Alpha: sender after view - sender_after_view",
    "tags": [
      "admin_client",
      "alpha",
      "client",
      "michelson"
    ],
    "successful_runs": {
      "total_time": "1883128",
      "count": "1"
    }
  },
  {
    "file": "tezt/tests/views.ml",
    "title": "Oxford: Typecheck view - view_toplevel_bad_return_type",
    "tags": [
      "admin_client",
      "client",
      "michelson",
      "oxford"
    ],
    "successful_runs": {
      "total_time": "674871",
      "count": "1"
    }
  },
  {
    "file": "tezt/tests/zk_rollup.ml",
    "title": "Alpha: failing_publish",
    "tags": [
      "admin_client",
      "alpha",
      "client",
      "node",
      "zk_rollup"
    ],
    "successful_runs": {
      "total_time": "4045898",
      "count": "1"
    }
  },
  {
    "file": "tezt/tests/dac.ml",
    "title": "Nairobi: Testing Full DAC infrastructure (dac_get_certificate)",
    "tags": [
      "admin_client",
      "client",
      "dac",
      "dac_node",
      "nairobi",
      "node",
      "smart_rollup_node"
    ],
    "successful_runs": {
      "total_time": "4740122",
      "count": "1"
    }
  },
  {
    "file": "tezt/tests/timelock.ml",
    "title": "Oxford: Incorrect guess test on timelock",
    "tags": [
      "admin_client",
      "client",
      "michelson",
      "oxford",
      "timelock"
    ],
    "successful_runs": {
      "total_time": "4683789",
      "count": "1"
    }
  },
  {
    "file": "tezt/tests/dal.ml",
    "title": "Alpha: Testing DAL rollup and node with L1 (test tx_kernel)",
    "tags": [
      "regression",
      "admin_client",
      "alpha",
      "client",
      "dal",
      "dal_node",
      "node",
      "smart_rollup_installer",
      "smart_rollup_node",
      "tezos2",
      "tx_kernel_dal"
    ],
    "successful_runs": {
      "total_time": "64504575",
      "count": "1"
    }
  }
]